Arts & Entertainment,College & University,Event,Food,Nightlife Spot,Outdoors & Recreation,Professional & Other Places,Residence,Shop & Service,Travel & Transport,cell
1,0,0,1,0,0,1,0,1,0,0
0,0,0,0,0,1,0,0,0,0,1
2,0,0,0,0,0,0,1,2,0,3
0,0,0,3,1,0,0,0,1,0,4
2,1,0,1,0,0,1,0,4,3,9
0,0,0,0,0,0,0,0,1,0,15
0,0,0,1,0,0,1,0,1,2,17
0,0,0,1,1,0,0,0,1,0,18
0,0,0,1,0,0,0,0,1,0,23
1,0,0,2,0,0,0,0,0,0,24
0,0,0,0,0,0,0,0,1,0,29
0,0,0,2,0,0,0,0,1,0,30
0,0,0,2,0,0,2,0,4,0,31
0,0,0,0,0,0,0,1,0,0,32
0,0,0,3,0,0,0,0,3,1,34
0,0,0,3,0,0,1,0,4,2,37
0,0,0,0,0,0,2,0,1,0,39
0,0,0,0,0,0,0,0,3,1,41
1,0,0,10,0,2,0,0,3,2,42
0,0,0,0,0,0,0,0,1,0,44
0,0,0,3,1,0,0,1,1,1,47
0,0,0,2,6,0,0,0,0,0,54
0,0,0,5,2,1,0,0,2,0,55
0,0,0,2,0,0,1,0,4,0,57
0,0,0,0,0,0,1,0,0,0,58
0,0,0,0,0,0,0,0,2,0,60
0,0,0,1,0,0,0,0,1,0,61
0,0,0,2,0,0,0,0,0,0,62
0,0,0,0,0,0,3,0,4,2,63
0,0,0,1,0,0,0,0,2,0,65
0,0,0,3,1,0,0,0,3,0,67
0,0,0,1,0,0,2,0,0,0,68
0,0,0,0,0,0,0,0,0,1,71
0,0,0,3,2,1,1,0,0,0,74
0,0,0,0,1,0,0,0,1,0,78
0,0,0,0,0,0,1,0,0,0,80
0,0,0,1,0,0,0,0,0,0,87
0,1,0,0,0,0,1,0,0,1,89
0,0,0,2,0,0,0,0,0,0,95
1,0,0,1,0,1,0,0,1,1,96
1,0,0,0,1,0,0,1,0,1,100
0,0,0,1,0,0,1,0,2,0,101
0,0,0,1,0,0,0,0,0,0,105
0,0,0,0,2,0,0,0,1,0,106
0,0,0,1,0,1,0,0,0,2,107
0,0,0,3,0,0,1,0,3,1,109
0,0,0,1,0,1,0,1,2,1,110
0,0,0,0,0,0,3,0,1,0,114
0,1,0,0,0,0,0,0,1,0,117
0,0,0,3,0,0,2,0,0,1,118
0,0,0,1,2,0,0,0,2,0,119
0,0,0,0,0,0,1,0,1,0,124
0,1,0,0,0,0,0,0,0,0,128
0,0,0,0,0,0,1,0,0,0,131
0,0,0,1,5,0,0,0,1,0,134
0,0,0,5,0,0,0,0,0,1,135
0,0,0,4,0,0,1,0,2,0,140
0,0,0,2,0,2,0,0,0,0,141
0,0,0,0,0,0,1,0,1,2,142
1,0,0,1,0,0,0,0,1,0,143
0,0,0,0,0,0,1,0,0,1,145
0,0,0,1,0,0,1,0,2,0,146
0,1,0,0,0,0,0,0,0,0,151
0,0,0,1,0,1,0,0,2,0,152
0,0,0,2,0,0,0,0,1,0,153
0,0,0,1,0,1,0,0,1,0,156
0,0,0,1,0,0,0,0,0,0,160
0,0,0,2,0,0,0,0,0,0,162
0,0,0,0,0,0,0,0,2,0,163
0,0,0,1,0,0,0,0,0,0,164
0,0,0,1,0,0,4,0,2,0,168
0,0,0,1,0,1,0,0,0,0,170
0,0,0,0,0,0,0,0,1,0,172
0,0,0,0,0,1,0,0,0,0,174
0,0,0,0,0,1,0,0,0,0,175
0,0,0,1,1,2,1,0,2,2,176
0,0,0,2,1,1,0,0,3,2,179
0,0,0,3,0,0,3,0,5,1,180
0,0,0,1,0,1,0,0,0,0,183
0,0,0,3,0,0,1,0,0,1,186
0,0,0,3,0,0,1,0,2,0,192
0,0,0,0,0,0,2,0,1,0,195
0,0,0,2,1,3,0,0,0,0,197
0,0,0,0,0,0,1,0,1,0,198
1,0,0,0,0,0,0,0,0,0,200
0,0,0,1,0,0,2,0,5,1,201
0,1,0,0,0,1,0,0,0,0,204
1,0,0,0,0,0,0,0,0,0,205
0,0,0,1,0,0,0,0,0,0,206
0,0,0,0,0,0,0,0,3,0,210
0,0,0,1,0,0,0,0,0,0,213
0,0,0,1,1,0,2,0,0,0,214
0,0,0,7,3,0,0,0,0,0,216
0,0,0,1,1,1,5,0,7,0,218
0,0,0,0,0,1,0,0,0,0,221
0,0,0,0,0,1,1,0,0,0,222
0,0,0,5,1,0,0,0,0,0,226
0,0,0,0,0,1,0,0,0,0,231
0,0,0,0,0,0,1,0,0,0,234
0,0,0,0,0,0,0,0,1,0,235
1,0,0,0,0,0,2,0,0,1,239
0,0,0,3,0,0,1,0,0,2,240
0,0,0,0,0,0,0,0,1,1,241
0,0,0,1,0,0,1,0,2,0,242
5,0,0,1,1,2,3,0,2,0,243
0,0,0,5,0,0,1,0,4,4,244
0,0,0,0,0,0,0,0,0,2,245
0,0,0,3,0,0,0,0,1,1,247
0,0,0,4,3,0,0,1,7,2,248
0,0,0,0,0,1,2,0,0,0,249
0,0,0,0,0,0,0,0,0,2,250
0,0,0,0,0,0,0,0,0,1,252
0,0,0,0,0,0,1,0,0,0,254
0,0,0,1,0,1,0,0,0,1,257
0,0,0,4,0,0,1,0,6,2,258
0,0,0,2,1,0,0,0,0,3,261
0,0,0,0,0,0,1,0,1,0,262
0,0,0,0,0,0,3,0,0,0,264
0,1,0,0,0,0,1,0,0,0,265
0,0,0,0,0,1,0,0,0,0,266
0,0,0,0,0,0,0,0,1,1,268
0,0,0,3,0,0,0,0,0,1,269
0,0,0,7,0,0,3,0,10,0,270
0,0,0,0,1,0,0,0,0,0,272
0,0,0,2,0,0,0,1,3,1,273
0,0,0,1,0,0,1,0,2,0,276
0,0,0,0,0,1,0,1,3,1,279
0,0,0,0,2,0,0,0,3,0,280
0,0,0,0,0,1,0,0,0,1,283
1,0,0,0,0,0,0,0,0,0,285
1,0,0,0,0,1,0,0,1,0,287
1,0,0,0,0,0,1,0,0,1,289
1,1,0,0,0,0,0,0,1,1,291
0,1,0,0,0,0,0,0,1,0,294
0,0,0,0,0,0,1,1,2,2,295
0,0,0,1,0,0,0,0,0,0,298
0,0,0,2,0,2,0,0,0,0,301
0,0,0,0,0,0,0,0,1,1,302
0,0,0,5,1,0,3,0,2,0,303
0,0,0,1,0,0,1,0,0,0,304
0,0,0,0,0,0,0,0,1,0,305
0,0,0,0,1,0,2,0,1,1,308
0,0,0,1,0,0,1,0,1,1,309
0,0,0,2,0,0,0,0,0,1,311
0,0,0,2,0,0,0,1,0,1,313
0,0,0,5,0,0,0,0,0,4,315
0,0,0,0,0,0,0,0,0,1,318
1,1,0,0,0,0,0,0,0,0,319
0,0,0,0,0,0,0,2,0,0,324
0,0,0,0,0,1,0,0,0,0,326
0,0,0,1,0,0,0,0,1,0,327
0,0,0,6,0,0,3,0,7,5,328
1,0,0,1,0,0,1,0,0,0,331
0,0,0,3,0,1,0,0,0,0,332
0,0,0,1,1,0,1,0,3,3,333
3,0,0,2,1,0,1,0,0,0,334
0,0,0,0,0,0,2,0,1,0,336
1,0,0,0,0,0,0,0,1,1,337
0,0,0,1,0,0,1,0,1,0,338
0,0,0,1,1,1,1,0,1,0,342
0,0,0,0,0,1,0,0,2,0,349
0,0,0,3,0,0,1,0,9,1,352
0,0,0,0,0,0,1,0,0,0,355
0,0,0,2,0,0,0,1,1,0,358
1,0,0,2,0,0,3,0,1,0,359
0,0,0,0,0,0,0,0,1,0,362
0,0,0,0,0,0,0,0,0,1,363
0,0,0,2,1,0,1,0,5,0,364
0,0,0,1,0,0,0,0,0,2,367
0,0,0,6,10,0,1,0,1,2,368
0,0,0,0,0,1,2,0,0,0,370
0,0,0,0,0,0,2,0,0,0,371
0,0,0,2,0,0,0,0,0,1,373
1,0,0,0,0,2,1,0,0,1,375
0,0,0,2,0,2,0,0,0,0,377
0,1,0,0,0,1,3,0,0,0,378
0,0,0,3,0,0,1,0,0,0,382
0,0,0,0,0,0,0,0,1,0,383
0,0,0,1,0,0,1,0,1,2,384
0,0,0,0,0,1,1,0,1,0,385
0,0,0,2,0,0,0,0,2,0,388
0,0,0,1,0,0,0,0,0,0,389
0,0,0,2,1,1,2,0,1,0,390
0,2,0,1,0,0,1,2,0,0,391
1,0,0,3,0,0,1,1,0,0,394
0,0,0,2,1,0,0,0,0,0,395
0,0,0,1,0,0,0,1,0,1,397
0,0,0,0,0,0,0,0,3,1,400
0,0,0,0,0,0,0,0,1,0,409
2,0,0,3,1,0,9,0,3,0,411
0,0,0,2,0,0,1,0,0,0,412
0,0,0,8,0,0,2,1,5,2,413
0,0,0,0,0,0,3,0,1,0,414
0,0,0,0,0,0,1,2,0,1,415
0,0,0,3,0,0,1,0,0,0,416
0,0,0,0,0,0,1,0,2,0,417
0,0,0,0,1,0,0,0,1,0,418
0,0,0,1,0,0,0,0,1,0,419
0,0,0,3,1,0,6,0,2,2,421
1,0,0,1,0,0,1,0,3,0,423
0,0,0,2,1,0,1,1,2,1,424
0,0,0,2,0,0,0,0,0,0,425
0,0,0,2,0,0,0,0,0,0,429
0,0,0,3,0,0,1,0,0,2,430
0,0,0,0,0,0,1,0,0,0,431
0,0,0,0,0,0,1,0,1,0,435
0,0,0,2,0,1,0,0,2,0,437
0,0,0,0,0,2,1,0,0,2,438
0,0,0,3,0,0,2,0,4,1,439
0,1,0,0,0,0,0,0,0,0,446
0,0,0,0,0,0,1,0,1,0,450
0,1,0,0,0,0,0,0,0,0,451
0,0,0,0,0,0,1,0,0,0,458
0,0,0,0,0,0,0,0,2,0,460
0,0,0,1,1,0,0,0,1,0,461
0,0,0,3,2,0,2,0,0,0,464
2,0,0,1,0,0,0,0,0,2,465
0,0,0,3,0,0,0,0,2,0,466
1,0,0,2,0,0,2,0,2,0,467
0,0,0,0,0,0,1,0,1,0,468
0,0,0,1,0,0,0,0,1,0,469
0,0,0,2,0,0,1,0,1,0,471
0,0,0,0,0,0,1,0,0,0,472
0,1,0,0,0,0,0,0,0,0,474
0,0,0,1,1,0,0,1,1,0,478
0,0,0,2,0,1,6,0,0,0,479
0,0,0,1,0,0,0,0,1,5,480
0,0,0,1,0,1,0,0,6,1,481
0,0,0,0,1,0,0,0,0,0,483
2,0,0,2,0,0,1,0,0,1,484
0,0,0,0,0,1,4,0,1,0,487
0,0,0,1,0,0,0,0,0,0,488
0,0,0,0,0,1,0,0,0,0,489
0,0,0,0,0,0,1,0,0,0,490
0,0,0,1,1,0,0,0,0,1,496
0,0,0,0,0,0,2,0,0,0,497
0,1,0,0,0,0,3,0,0,0,498
1,0,0,2,1,0,0,0,3,0,499
0,0,0,0,0,0,2,0,0,0,506
0,0,0,0,0,0,0,0,4,0,510
0,0,0,0,0,1,1,0,0,0,513
0,0,0,1,0,0,2,0,1,0,514
0,0,0,2,1,0,1,0,1,0,515
0,0,0,2,0,0,1,0,0,1,516
0,0,0,0,0,1,0,0,0,0,521
1,0,0,0,0,1,0,0,2,0,522
0,1,0,0,0,0,0,0,0,0,524
0,0,0,2,0,0,0,0,5,0,525
0,0,0,0,0,0,0,0,0,1,526
0,0,0,1,0,0,1,0,0,0,529
0,0,0,3,0,0,1,0,2,1,530
0,0,0,1,0,0,2,0,0,0,532
0,0,0,0,0,1,0,0,0,2,534
1,0,0,3,0,0,1,0,0,0,536
0,0,0,1,0,0,0,0,0,1,537
0,0,0,0,1,0,0,1,1,0,539
0,0,0,0,0,0,1,0,0,0,541
0,0,0,0,0,0,0,0,0,1,543
0,0,0,0,0,0,1,0,0,1,545
0,0,0,0,0,1,0,0,0,0,546
0,0,0,0,0,0,0,0,1,0,547
0,0,0,0,0,0,0,0,1,0,548
1,0,0,2,0,0,0,0,0,0,550
0,0,0,0,0,0,0,0,0,1,552
0,0,0,0,0,0,1,0,0,0,553
0,0,0,2,0,0,1,0,0,0,555
0,0,0,0,0,0,2,0,0,0,559
0,0,0,0,0,0,2,0,3,1,561
0,0,0,2,0,0,0,0,6,0,562
0,0,0,1,1,5,4,0,1,0,563
1,0,0,0,0,0,1,0,0,0,564
1,0,0,2,0,0,0,0,5,0,565
0,0,0,19,2,0,2,0,4,0,566
0,0,0,0,1,0,0,0,0,0,569
0,0,0,2,0,0,0,0,2,2,570
0,0,0,1,0,0,0,0,0,0,573
0,0,0,0,0,0,1,0,2,1,575
0,0,0,0,0,0,1,0,0,0,576
0,0,0,0,0,1,1,0,0,0,577
0,0,0,1,1,0,0,1,2,1,578
0,0,0,5,0,0,0,0,0,3,579
0,0,0,0,0,1,0,1,0,0,580
0,0,0,2,0,0,0,1,0,0,582
0,0,0,1,0,0,0,0,0,0,584
0,0,0,1,0,0,1,0,0,0,590
0,0,0,0,0,0,1,0,3,0,591
0,0,0,1,0,0,1,0,0,0,594
0,0,0,0,0,0,1,0,1,0,601
0,1,0,0,0,0,2,0,5,0,602
0,0,0,0,2,0,0,2,2,0,604
0,0,0,0,2,0,0,0,0,1,605
0,0,0,1,0,0,0,0,1,1,607
0,0,0,1,0,0,1,0,1,0,608
0,0,0,0,0,0,1,0,0,0,611
0,0,0,2,0,1,0,0,0,0,612
0,0,0,1,0,0,0,0,0,0,613
0,0,0,1,0,0,0,0,0,0,616
0,0,0,0,0,0,1,0,0,0,617
0,0,0,1,0,0,0,0,0,1,618
0,0,0,0,0,1,2,1,1,0,619
0,0,0,2,0,0,3,0,1,1,621
0,0,0,0,0,1,0,0,0,0,624
0,0,0,0,0,0,1,0,2,0,625
0,0,0,4,0,0,0,0,0,0,626
0,3,0,4,1,0,0,0,1,1,629
0,0,0,0,0,0,0,0,1,0,630
0,0,0,5,0,0,2,0,5,1,632
0,1,0,2,0,0,0,0,0,1,633
1,36,0,1,2,4,10,1,2,0,634
0,0,0,0,0,0,1,0,0,0,638
0,3,0,0,0,0,1,0,0,0,642
0,2,0,0,0,0,3,0,0,0,644
0,0,0,0,0,0,0,0,0,2,645
0,0,0,0,0,0,2,0,0,0,649
0,0,0,0,0,0,1,0,1,0,651
0,1,0,0,0,0,1,0,1,0,652
0,0,0,0,0,0,1,0,0,0,656
0,1,0,3,0,0,7,0,0,0,659
0,0,0,5,0,0,1,0,1,3,664
0,0,0,0,0,0,4,0,0,1,667
0,0,0,1,0,1,0,1,1,0,668
0,0,0,0,0,0,1,0,0,0,669
0,0,0,2,0,0,0,0,1,0,671
0,0,0,2,0,0,3,0,0,0,673
0,0,0,0,0,0,1,0,0,0,674
0,0,0,0,0,0,1,0,0,0,676
0,0,0,1,0,0,0,0,0,0,677
0,0,0,1,0,0,0,0,1,0,679
0,0,0,1,1,0,1,0,0,0,681
0,0,0,4,0,0,1,0,10,1,684
0,0,0,1,0,0,2,0,3,1,685
0,0,0,0,0,0,1,0,0,1,687
1,1,0,2,0,1,1,1,1,0,689
0,1,0,1,0,0,1,0,0,0,692
0,0,0,0,1,1,0,0,0,0,693
0,0,0,0,2,1,2,0,0,1,695
0,0,0,3,1,0,0,0,0,4,696
0,0,0,0,0,0,0,0,3,0,697
0,0,0,1,0,1,0,0,1,0,698
0,0,0,3,0,2,4,0,4,0,699
0,0,0,0,0,0,0,0,1,0,701
0,1,0,0,0,1,2,0,0,3,702
0,8,0,0,0,0,0,0,0,0,703
0,5,0,0,0,0,1,0,0,0,704
0,0,0,0,1,0,0,0,0,0,705
0,0,0,4,0,0,0,1,3,1,709
0,0,0,1,0,0,0,0,1,3,711
0,1,0,2,0,0,0,0,0,1,712
0,1,0,1,0,0,4,0,1,0,715
0,0,0,1,0,0,1,1,0,0,718
0,2,0,0,0,0,0,0,0,0,719
0,0,0,0,0,0,1,1,1,0,721
0,0,0,0,0,0,1,0,1,0,723
0,0,0,1,0,1,1,0,3,0,725
0,0,0,1,0,1,1,0,0,0,726
0,0,0,0,0,0,0,0,1,0,728
0,0,0,0,2,0,2,0,0,2,731
0,0,0,0,0,0,1,0,2,1,733
1,0,0,4,2,1,1,0,3,0,735
0,0,0,2,2,2,0,0,0,0,736
0,0,0,0,0,0,1,0,0,1,737
0,0,0,0,0,0,0,0,1,0,738
0,0,0,3,1,0,0,0,0,0,739
0,0,0,1,0,1,1,0,0,0,740
1,0,0,3,0,0,1,0,0,0,744
0,0,0,1,0,0,0,0,1,0,745
0,1,0,0,0,0,0,0,0,0,747
0,0,0,2,0,0,1,0,0,0,748
0,0,0,1,0,0,1,0,0,1,751
1,0,0,1,0,2,0,0,0,6,753
0,0,0,3,0,1,0,0,1,0,755
0,0,0,0,0,0,1,0,0,0,756
0,0,0,0,0,0,0,0,1,0,758
0,0,0,0,0,0,0,0,1,0,759
0,0,0,1,2,0,0,0,0,0,760
0,1,0,0,0,0,1,1,1,0,761
0,0,0,2,0,0,0,0,1,0,763
0,0,0,1,0,0,1,1,0,0,765
1,0,0,1,0,0,0,0,0,0,766
0,0,0,0,0,0,1,0,0,0,770
1,0,0,1,0,0,1,0,1,0,772
0,0,0,0,0,0,1,0,1,0,773
0,0,0,0,0,1,0,2,0,0,776
0,0,0,0,0,0,1,0,0,1,777
0,3,0,0,0,1,0,0,0,0,778
0,0,0,6,0,0,0,0,10,2,779
0,0,0,1,0,0,0,0,0,0,780
0,0,0,5,0,1,2,2,1,0,781
0,0,0,1,0,0,1,0,0,0,784
0,0,0,3,0,0,0,0,0,2,786
0,0,0,1,0,0,1,0,1,0,788
0,0,0,0,0,0,0,1,1,0,791
0,0,0,0,0,1,1,0,0,0,793
0,0,0,0,0,0,1,0,1,0,796
0,0,0,0,2,0,0,0,0,0,797
0,0,0,2,0,0,0,1,2,0,799
0,0,0,4,0,1,2,0,4,0,800
0,0,0,0,0,0,2,0,2,0,803
1,0,0,1,0,3,1,0,0,0,808
0,0,0,5,0,0,4,0,5,0,809
0,0,0,3,0,0,0,0,1,1,810
0,1,0,3,0,0,1,0,2,0,813
0,0,0,0,0,1,1,0,0,1,814
0,0,0,4,0,0,1,0,0,0,815
0,0,0,5,0,0,0,0,11,2,817
0,0,0,2,0,0,0,0,2,0,818
0,0,0,0,0,0,0,1,0,0,819
0,0,0,1,0,1,0,0,1,0,820
0,0,0,1,2,0,1,0,0,1,821
0,0,0,5,0,0,0,0,1,0,822
0,0,0,0,0,0,0,0,1,0,823
0,0,0,2,0,0,3,0,1,1,825
0,0,0,1,1,0,2,0,2,1,826
1,0,0,0,0,0,1,1,0,0,828
0,0,0,3,1,0,2,0,1,1,829
0,0,0,2,0,1,2,0,5,0,830
0,0,0,1,0,0,0,0,1,1,831
1,0,0,0,0,0,0,0,0,0,832
0,0,0,0,0,0,1,0,1,0,835
0,0,0,1,0,0,0,0,2,1,836
0,0,0,0,0,1,0,0,0,0,837
0,0,0,1,0,0,0,0,1,0,839
0,0,0,1,0,0,1,0,0,1,840
0,0,0,0,1,0,0,1,0,0,841
0,0,0,10,0,3,1,0,9,0,842
0,0,0,0,0,0,1,0,0,1,844
0,1,0,0,0,0,0,0,0,0,845
0,0,0,17,2,0,1,0,2,4,848
0,0,0,0,1,0,1,0,0,1,849
0,0,0,0,0,0,1,0,0,0,850
0,0,0,0,0,0,0,0,1,0,852
0,0,0,0,0,1,0,0,0,0,853
0,0,0,0,2,0,1,0,1,0,854
0,0,0,1,0,0,0,0,1,1,855
0,0,0,0,0,0,5,1,1,1,856
1,0,0,3,0,1,1,1,1,0,858
0,0,0,0,1,0,1,0,0,0,859
0,0,0,0,0,0,1,0,0,0,861
0,0,0,1,0,0,0,0,1,0,863
0,0,0,1,0,0,0,0,3,0,864
1,0,0,8,0,0,0,0,5,0,865
0,1,0,0,0,1,1,0,2,0,867
0,1,0,0,0,0,1,0,1,1,868
0,0,0,1,0,0,2,0,0,0,869
0,0,0,0,0,0,0,0,0,1,870
0,1,0,3,0,1,0,0,2,0,871
0,0,0,2,1,0,1,2,2,1,872
1,0,0,0,0,0,1,0,0,0,875
0,0,0,0,0,0,1,0,0,0,876
0,0,0,1,0,0,0,0,0,0,877
1,0,0,0,1,0,1,1,2,1,878
0,0,0,0,1,1,0,0,1,1,879
0,0,0,2,0,0,0,0,0,3,880
0,0,0,0,0,0,0,0,1,0,882
0,1,0,0,0,0,0,0,0,0,884
0,0,0,1,0,0,1,0,0,0,885
0,0,0,1,0,0,0,1,0,0,888
0,0,0,0,0,0,0,2,1,3,889
0,0,0,2,0,0,0,0,0,0,890
0,0,0,10,0,1,1,0,1,2,892
0,0,0,0,0,0,1,1,0,0,895
0,0,0,1,0,0,0,0,0,0,899
0,0,0,0,0,0,0,0,2,0,901
1,0,0,2,0,0,1,0,1,1,902
0,0,0,3,0,0,1,0,0,0,904
0,1,0,0,0,0,2,0,1,0,905
0,0,0,1,0,0,1,0,0,1,909
0,0,0,0,0,0,1,0,0,0,911
0,0,0,0,1,0,0,0,0,0,912
0,0,0,0,0,0,0,0,0,1,913
0,1,0,0,0,1,0,1,1,1,915
0,0,0,2,2,1,3,1,3,1,916
0,0,0,3,0,0,0,0,1,0,919
0,0,0,3,0,0,3,2,5,2,920
1,1,0,1,0,1,1,0,0,0,921
1,0,0,1,1,1,0,0,4,0,922
1,0,0,0,0,0,0,1,0,1,924
0,0,0,0,0,0,1,0,1,0,926
0,0,0,0,0,0,1,0,0,0,927
1,1,0,2,0,0,1,0,1,0,928
0,0,0,1,0,0,0,0,2,0,930
0,0,0,1,0,0,2,1,1,0,933
0,0,0,0,0,0,0,0,1,0,935
0,0,0,0,0,0,1,0,1,0,939
0,0,0,0,0,0,1,0,0,0,941
0,3,0,0,0,0,0,0,1,0,942
0,0,0,0,0,0,1,0,1,0,943
0,0,0,0,0,0,0,0,0,1,944
0,0,0,0,0,0,0,0,1,0,945
0,0,0,1,0,0,0,0,0,0,947
0,0,0,0,0,0,0,0,1,0,950
0,0,0,2,0,0,0,0,0,0,951
0,0,0,0,0,0,1,0,0,1,952
0,0,0,3,1,0,2,0,1,1,953
0,0,0,3,0,0,5,0,1,0,954
0,0,0,1,0,0,2,0,2,0,956
0,0,0,0,0,0,2,0,0,0,957
0,0,0,0,0,0,0,0,1,0,958
1,0,0,0,0,0,0,0,0,0,960
0,0,0,2,0,0,4,0,0,0,961
0,0,0,1,0,0,0,0,0,0,963
0,0,0,2,0,0,2,0,1,1,964
0,0,0,1,0,0,0,1,1,0,965
0,0,0,0,0,0,0,0,1,1,969
0,1,0,3,0,1,0,0,1,0,970
0,0,0,0,0,0,1,0,0,0,973
0,0,0,0,0,0,1,0,0,0,974
0,0,0,3,0,0,0,0,0,0,977
0,0,0,0,0,0,2,1,0,0,978
0,0,0,1,0,0,1,0,1,1,984
0,0,0,1,0,0,0,0,1,0,985
0,0,0,0,0,0,0,0,4,0,986
1,0,0,1,0,1,0,1,1,0,989
0,0,0,0,0,0,0,0,0,1,995
0,0,0,0,0,0,3,0,0,1,996
0,0,0,0,0,0,0,0,1,0,997
0,0,0,0,0,0,0,0,1,0,1000
1,0,0,6,3,0,0,0,4,3,1001
0,0,0,0,0,0,4,0,0,1,1004
0,1,0,2,0,0,0,0,0,0,1005
0,0,0,1,0,0,3,0,0,0,1007
0,0,0,0,0,0,1,0,0,0,1008
0,0,0,3,0,0,2,2,0,2,1012
1,0,0,0,0,0,1,0,0,0,1014
0,0,0,2,0,0,0,0,0,0,1015
0,0,0,1,0,0,3,0,4,0,1016
0,0,0,0,0,0,1,1,0,0,1017
0,0,0,0,0,0,0,0,0,1,1019
0,0,0,4,1,0,0,1,5,2,1021
0,0,0,0,0,0,0,0,1,1,1022
0,0,0,1,0,0,0,1,0,0,1024
0,0,0,1,0,0,1,0,0,0,1026
0,0,0,0,0,0,0,1,0,0,1027
0,0,0,0,0,0,0,1,0,0,1028
0,0,0,0,0,1,1,0,1,0,1034
0,0,0,1,1,0,0,0,1,0,1035
0,0,0,1,1,1,2,0,0,0,1036
0,0,0,0,0,0,0,0,1,2,1037
1,1,0,0,0,0,0,0,0,0,1038
0,0,0,0,0,0,0,1,0,0,1039
0,0,0,1,0,0,0,0,0,1,1041
0,0,0,1,0,0,2,0,3,1,1042
0,0,0,4,1,1,0,0,2,3,1044
0,0,0,0,0,0,0,1,0,0,1045
0,0,0,0,0,1,0,1,1,0,1047
0,0,0,1,0,0,1,1,1,0,1048
0,0,0,1,0,0,1,0,0,0,1049
1,0,0,1,0,2,0,0,1,0,1050
0,0,0,0,0,0,1,0,1,0,1053
0,0,0,0,1,0,0,1,3,1,1054
0,0,0,1,0,0,0,0,0,0,1056
0,0,0,0,0,0,0,1,0,0,1058
0,0,0,0,0,0,0,0,1,0,1059
0,1,0,0,0,0,4,0,0,0,1060
0,0,0,2,0,0,0,0,10,0,1061
0,0,0,0,0,0,1,0,0,0,1065
0,0,0,0,0,0,1,0,0,0,1070
0,0,0,0,0,0,1,0,1,0,1072
0,0,0,1,0,0,0,0,1,0,1075
0,0,0,1,1,2,0,0,1,3,1076
1,0,0,4,0,0,6,0,7,5,1079
0,1,0,0,0,1,0,0,4,0,1080
0,0,0,2,0,0,0,0,0,0,1084
0,0,0,3,0,0,0,1,2,1,1086
2,0,0,1,0,0,0,0,0,0,1087
0,0,0,0,0,0,1,0,0,0,1088
0,1,0,0,0,0,1,0,0,0,1089
0,0,0,2,0,0,1,0,0,1,1090
0,3,0,1,0,1,3,0,1,0,1091
0,0,0,0,0,0,1,0,0,0,1092
0,0,0,1,1,0,1,0,0,0,1093
0,0,0,1,0,1,3,0,0,0,1095
0,0,0,0,0,0,0,0,1,0,1097
0,1,0,1,0,0,1,0,0,0,1098
0,0,0,1,0,0,0,1,3,1,1099
0,0,0,2,1,0,2,1,1,2,1100
1,0,0,0,0,1,1,0,0,0,1102
0,0,0,0,0,0,1,0,0,0,1104
0,0,0,0,0,0,0,0,1,0,1107
0,0,0,1,0,0,3,3,2,0,1108
0,0,0,0,0,0,0,1,1,0,1109
0,0,0,0,0,0,0,1,0,0,1110
0,0,0,0,0,0,0,0,1,0,1112
0,0,0,0,0,0,1,0,0,0,1114
0,0,0,1,0,0,0,0,0,0,1115
0,0,0,4,1,0,0,0,0,0,1116
0,0,0,1,0,0,1,0,4,0,1119
0,0,0,5,1,1,0,2,1,4,1121
0,0,0,1,0,0,0,0,0,9,1125
0,0,0,1,0,0,3,0,0,0,1128
0,2,0,1,0,0,1,0,0,1,1130
0,0,0,2,0,0,6,2,2,2,1133
0,0,0,0,0,1,1,0,0,0,1136
1,0,0,0,0,0,0,0,1,0,1137
0,17,0,1,0,1,3,1,1,0,1138
2,0,0,4,0,0,1,0,0,1,1140
0,0,0,0,0,1,1,0,1,0,1141
0,0,0,3,0,0,1,1,2,1,1144
0,0,0,3,1,0,1,0,0,2,1146
0,0,0,1,0,0,0,0,0,0,1147
0,0,0,0,0,0,0,0,0,1,1148
0,1,0,0,0,0,0,0,0,0,1149
0,0,0,2,0,0,0,1,2,0,1150
0,0,0,0,0,0,1,0,0,0,1151
0,0,0,0,0,0,1,0,1,0,1152
0,0,0,0,0,0,0,0,1,0,1155
1,0,0,0,1,0,1,1,0,0,1158
0,0,0,2,0,0,1,0,0,0,1159
0,0,0,1,0,0,0,0,0,0,1162
0,0,0,1,0,0,2,0,0,0,1165
0,0,0,0,0,0,2,0,1,0,1168
0,0,0,1,0,0,0,0,1,0,1172
0,0,0,0,0,0,0,0,1,0,1173
0,0,0,0,0,0,0,0,1,0,1175
0,0,0,0,0,0,0,1,0,0,1176
0,0,0,0,0,0,2,0,0,0,1178
0,0,0,0,0,0,1,0,0,0,1179
0,0,0,1,0,0,0,0,1,0,1180
0,0,0,1,0,0,1,0,0,0,1181
1,0,0,0,0,0,1,0,1,0,1183
0,0,0,0,0,2,0,0,0,0,1184
0,0,0,1,0,0,0,0,0,0,1189
0,0,0,3,1,0,1,0,4,2,1190
1,0,0,1,0,1,1,1,0,2,1192
0,0,0,0,0,0,0,0,0,2,1196
0,0,0,5,1,1,0,0,2,3,1199
0,0,0,2,0,1,2,0,5,0,1201
0,0,0,1,0,0,0,1,1,0,1203
0,0,0,13,3,0,0,0,1,8,1206
0,0,0,0,0,0,1,0,0,0,1207
0,0,0,3,0,0,0,0,4,1,1210
0,0,0,0,0,0,4,0,1,0,1211
0,0,0,4,0,1,1,1,1,1,1213
0,0,0,1,0,0,0,0,0,0,1218
0,0,0,0,0,0,0,0,0,1,1219
0,0,0,0,0,0,1,0,0,0,1220
0,0,0,1,0,1,1,0,0,0,1222
0,0,0,0,0,0,2,0,1,0,1223
0,0,0,0,0,0,0,1,0,0,1226
0,0,0,4,0,0,1,0,3,0,1227
1,0,0,1,1,2,0,0,0,4,1230
0,1,0,1,0,0,2,0,1,0,1231
0,0,0,0,0,0,0,0,3,1,1232
0,0,0,0,0,1,0,0,0,0,1234
0,0,0,0,0,1,0,0,0,0,1235
0,0,0,1,0,0,3,1,1,1,1236
0,0,0,1,0,0,1,0,1,0,1239
0,0,0,0,0,0,0,0,1,0,1240
0,0,0,1,0,0,2,0,4,2,1242
0,0,0,5,0,0,1,1,0,0,1244
0,0,0,0,0,2,0,1,0,0,1247
2,0,0,0,0,0,0,0,0,0,1249
0,0,0,0,0,0,0,0,3,0,1251
0,0,0,0,0,0,4,0,2,0,1252
0,0,0,2,0,4,0,0,0,1,1254
0,0,0,1,0,0,0,0,0,0,1255
0,0,0,6,2,0,1,0,0,0,1256
0,1,0,2,0,0,2,0,0,0,1257
0,0,0,0,0,1,1,0,3,0,1259
0,0,0,0,0,2,0,0,0,0,1262
0,0,0,1,0,0,0,0,0,0,1263
1,0,0,0,0,0,0,0,0,0,1264
0,0,0,2,0,0,0,0,0,0,1265
0,0,0,0,0,0,1,0,0,0,1266
0,0,0,0,0,1,0,0,1,0,1267
0,0,0,9,0,0,0,1,1,3,1271
0,0,0,5,1,0,1,0,5,2,1273
0,0,0,2,1,0,2,0,0,2,1274
1,0,0,3,0,0,1,0,4,0,1275
0,0,0,3,2,0,1,0,1,0,1277
0,0,0,0,0,0,0,0,2,0,1281
0,0,0,0,0,0,0,1,1,3,1282
0,0,0,0,0,0,0,0,1,0,1283
0,0,0,0,0,0,0,1,0,0,1284
0,0,0,0,0,0,1,0,0,0,1285
0,0,0,0,0,0,1,1,0,0,1286
0,1,0,1,0,0,2,0,2,2,1287
0,0,0,6,1,0,0,1,6,0,1288
0,0,0,0,0,0,0,0,1,0,1289
0,0,0,0,0,0,0,1,2,0,1290
0,0,0,1,0,0,2,0,0,2,1292
0,0,0,1,2,0,0,0,0,1,1295
0,0,0,0,0,0,3,0,0,0,1297
0,0,0,1,0,0,2,1,1,0,1299
0,0,0,0,0,0,1,0,0,0,1300
0,0,0,1,1,2,1,0,0,0,1303
0,1,0,1,0,0,0,0,2,2,1304
0,0,0,1,0,0,0,0,0,0,1305
0,0,0,5,1,0,2,0,0,1,1306
0,0,0,0,0,0,1,0,4,0,1307
0,0,0,0,0,0,0,0,1,1,1309
0,0,0,0,0,0,0,0,0,1,1312
1,0,0,2,1,1,1,0,1,0,1314
0,0,0,1,0,0,0,0,0,0,1315
0,0,0,1,0,0,0,1,2,0,1316
0,0,0,2,2,0,1,0,0,1,1317
0,0,0,0,0,0,1,0,0,0,1318
0,0,0,0,0,0,1,0,0,0,1320
0,0,0,0,0,1,0,1,0,1,1322
1,0,0,2,0,0,0,0,0,0,1324
0,0,0,4,0,0,2,0,0,0,1325
0,0,0,0,0,0,1,0,2,0,1326
0,0,0,0,0,1,0,0,0,0,1327
0,0,0,1,1,2,0,0,0,2,1328
0,1,0,0,0,0,0,0,0,0,1329
0,0,0,0,0,1,0,0,0,0,1330
0,0,0,1,0,0,2,0,1,2,1331
0,0,0,1,0,0,0,1,0,1,1335
0,0,0,3,2,0,1,0,1,0,1336
0,0,0,0,0,0,0,0,0,1,1337
0,0,0,1,1,0,2,0,0,0,1338
0,0,0,1,0,0,0,0,0,0,1347
0,0,0,0,0,0,4,0,3,0,1348
0,0,0,1,0,0,0,0,0,4,1350
0,0,0,0,0,0,1,0,0,0,1352
0,0,0,0,0,0,0,0,0,1,1355
0,0,0,0,0,0,2,0,0,1,1356
0,0,0,3,0,1,2,1,2,3,1357
0,0,0,8,0,0,1,1,4,1,1359
0,0,0,1,0,0,1,0,1,0,1361
0,0,0,11,2,3,0,1,0,2,1362
0,0,0,0,0,0,0,0,2,0,1364
0,1,0,3,0,1,1,0,3,0,1365
0,0,0,2,0,1,4,0,1,0,1367
0,0,0,1,0,0,1,0,0,0,1371
0,51,0,7,0,6,3,0,3,1,1372
0,0,0,0,0,0,1,0,0,0,1373
0,0,0,1,0,0,0,0,0,0,1374
0,0,0,0,0,1,0,0,0,0,1375
0,0,0,2,0,2,0,2,0,0,1376
0,0,0,1,0,0,0,0,1,0,1377
0,0,0,0,0,0,1,0,1,1,1378
0,0,0,0,1,0,0,2,0,0,1379
0,1,0,2,0,0,0,1,2,0,1380
0,0,0,0,0,1,1,0,0,0,1381
0,0,0,1,0,0,0,0,0,0,1385
0,0,0,0,0,1,0,0,0,0,1386
0,0,0,0,0,0,1,0,1,0,1387
0,0,0,0,0,0,1,0,0,0,1388
0,0,0,0,0,1,1,0,2,0,1389
0,0,0,0,0,0,2,0,1,0,1390
0,0,0,0,0,0,0,0,1,0,1391
1,2,0,0,0,0,2,0,0,1,1392
0,0,0,1,0,0,0,0,0,0,1393
1,0,0,4,0,0,0,0,0,0,1396
0,0,0,1,0,0,0,0,5,1,1397
0,1,0,0,0,0,3,0,0,0,1399
0,0,0,0,0,0,0,0,1,0,1400
0,0,0,0,0,1,0,0,0,0,1402
1,0,0,1,0,0,0,0,0,3,1403
0,0,0,1,0,0,0,0,0,0,1405
0,0,0,1,0,0,1,0,0,0,1406
0,0,0,0,0,1,0,0,0,0,1408
0,0,0,1,0,0,0,0,0,1,1409
0,0,0,10,0,0,1,0,15,2,1410
1,0,0,2,0,0,3,0,2,0,1411
0,0,0,1,0,0,0,0,1,0,1412
0,0,0,1,0,0,0,0,2,0,1414
0,1,0,2,0,1,0,1,1,0,1415
0,0,0,1,0,0,2,0,2,0,1418
0,0,0,0,0,1,1,1,2,0,1419
0,0,0,1,0,0,0,0,1,0,1420
0,0,0,3,0,0,0,0,1,0,1421
0,0,0,0,0,0,1,0,0,0,1425
0,0,0,1,1,0,1,2,0,2,1428
0,0,0,0,0,1,1,0,0,0,1430
0,0,0,2,1,0,0,1,2,0,1431
0,0,0,3,0,1,2,2,1,3,1432
0,0,0,2,0,0,0,0,0,1,1434
0,0,0,0,0,1,0,0,0,0,1435
0,0,0,2,1,2,6,0,6,0,1438
1,0,0,2,0,0,0,2,2,4,1440
0,0,0,0,1,0,0,0,1,0,1443
1,0,0,1,0,0,0,0,1,0,1444
0,0,0,0,0,0,1,0,0,0,1445
0,0,0,0,0,0,1,0,0,0,1446
0,0,0,0,0,0,0,0,1,0,1447
0,0,0,7,0,0,1,0,1,0,1448
0,0,0,1,0,0,1,0,1,0,1450
0,0,0,0,0,1,0,0,3,0,1452
0,0,0,1,0,0,2,0,1,0,1453
0,0,0,0,0,0,1,0,1,0,1456
0,0,0,1,0,0,0,0,4,0,1457
0,0,0,0,1,0,0,0,0,0,1458
0,0,0,2,0,0,1,0,2,0,1459
0,0,0,0,0,0,0,0,1,0,1460
0,0,0,1,0,0,0,0,0,2,1461
0,0,0,1,0,0,0,0,2,0,1465
0,1,0,0,0,1,2,1,0,0,1466
0,0,0,1,1,0,0,0,0,1,1467
0,0,0,1,0,0,0,0,1,1,1468
0,0,0,0,0,0,2,0,0,0,1469
0,0,0,0,0,0,0,1,0,0,1471
0,0,0,1,3,0,0,1,0,3,1474
0,0,0,0,0,0,1,0,0,0,1477
0,0,0,1,0,0,0,0,1,1,1483
0,0,0,4,0,0,1,0,0,0,1485
0,0,0,0,0,0,0,1,0,0,1486
0,0,0,2,0,0,0,0,0,0,1487
0,0,0,2,0,0,0,0,1,1,1489
0,0,0,0,0,1,0,0,3,1,1492
0,0,0,1,0,0,1,0,1,1,1493
0,0,0,0,0,1,0,0,1,1,1494
0,1,0,0,0,1,0,0,0,0,1497
2,0,0,0,0,0,2,0,1,1,1501
0,0,0,1,0,0,0,0,0,0,1505
0,0,0,2,0,0,1,0,1,0,1506
0,0,0,1,0,0,0,1,0,1,1508
1,0,0,0,0,0,2,0,1,0,1511
0,0,0,0,0,0,1,0,0,0,1521
0,0,0,0,0,0,0,1,0,0,1522
0,0,0,0,0,0,0,0,1,0,1523
0,0,0,1,0,3,0,2,1,0,1524
0,0,0,0,0,0,1,0,0,0,1525
1,0,0,0,0,0,1,0,0,0,1527
0,0,0,1,0,0,1,0,1,0,1528
0,0,0,2,0,1,1,0,1,0,1534
0,0,0,1,0,0,0,0,0,0,1535
0,0,0,0,0,1,0,0,0,0,1536
0,0,0,0,0,1,0,0,1,2,1539
0,0,0,1,0,0,0,0,0,2,1540
2,1,0,11,1,0,0,2,6,2,1542
0,0,0,0,0,1,0,0,0,0,1543
1,0,0,3,0,0,1,0,0,3,1546
0,0,0,10,0,0,0,0,2,0,1548
0,0,0,1,0,1,5,0,2,1,1549
0,0,0,0,0,0,1,0,0,0,1550
0,0,0,0,0,0,0,0,1,0,1551
1,0,0,0,0,0,0,0,0,1,1552
0,0,0,1,0,0,0,0,0,0,1553
1,1,0,3,0,2,3,0,4,1,1554
0,0,0,0,0,0,1,0,0,0,1557
0,0,0,1,0,0,0,2,0,0,1562
0,0,0,0,0,0,1,0,0,2,1563
0,0,0,2,0,0,0,0,0,0,1565
0,0,0,1,0,0,0,0,0,1,1566
4,0,0,2,0,0,1,0,3,1,1568
0,1,0,3,0,0,1,0,3,0,1569
0,0,0,3,0,0,0,0,0,0,1571
0,0,1,0,0,0,0,0,0,0,1572
0,1,0,4,0,0,2,0,10,0,1573
0,0,0,0,0,0,0,0,1,0,1575
0,0,0,0,1,2,0,0,3,0,1576
0,1,0,0,0,0,0,0,0,0,1577
0,0,0,0,0,1,2,1,2,0,1578
0,2,0,0,1,1,0,0,0,0,1582
0,0,0,1,0,0,1,0,1,0,1583
0,2,0,1,0,0,1,0,0,0,1585
0,0,0,0,0,0,1,0,0,0,1587
0,1,0,0,0,0,1,0,0,0,1588
0,0,0,0,0,0,0,0,1,0,1590
0,0,0,1,0,0,0,0,2,0,1591
0,0,0,1,0,1,3,0,0,0,1592
0,0,0,1,1,0,0,0,0,1,1594
0,0,0,0,0,2,0,0,0,0,1595
0,0,0,0,0,0,1,0,2,0,1596
0,0,0,0,0,0,1,0,0,0,1597
0,0,0,1,0,1,0,0,0,1,1602
0,0,0,0,0,0,1,0,0,1,1604
0,0,0,1,0,1,2,1,2,1,1606
0,0,0,0,0,0,0,0,1,0,1607
0,0,0,0,0,0,1,0,0,0,1609
1,0,0,4,1,1,1,0,0,0,1611
0,0,0,2,0,0,1,0,1,1,1612
0,1,0,0,0,0,2,0,0,0,1613
0,0,0,1,1,0,0,1,3,0,1614
0,0,0,3,0,0,1,0,5,4,1615
0,0,0,2,0,0,1,0,0,0,1616
0,0,0,0,0,3,0,0,2,0,1623
0,0,0,3,0,0,0,0,1,3,1624
0,0,0,2,0,0,0,0,12,0,1625
0,0,0,1,0,0,0,0,0,1,1626
0,0,0,2,0,0,1,0,2,2,1628
0,0,0,1,1,0,1,0,1,0,1632
0,0,0,0,0,0,2,0,0,0,1633
0,0,0,0,0,1,2,0,1,0,1634
0,0,0,0,0,0,3,0,0,0,1636
0,0,0,1,0,0,0,0,3,0,1638
0,0,0,20,1,0,0,0,9,2,1639
0,0,0,2,0,1,2,1,3,1,1640
0,0,0,1,0,0,0,0,4,2,1644
0,0,0,4,0,0,0,0,1,1,1645
0,0,0,0,0,0,3,1,0,1,1646
0,0,0,2,0,0,0,0,2,1,1647
1,0,1,7,1,0,0,1,2,3,1650
0,0,0,0,0,0,0,1,0,0,1654
0,0,0,1,0,0,0,0,0,0,1655
0,0,0,0,0,0,0,0,1,0,1656
0,1,0,1,0,0,1,0,0,0,1657
0,0,0,1,0,0,1,1,13,3,1658
0,0,0,4,0,0,3,0,0,0,1659
0,0,0,0,0,0,0,0,1,0,1660
0,0,0,1,0,0,0,0,0,0,1661
3,0,0,7,1,1,0,0,1,0,1663
0,0,0,1,0,0,2,0,0,0,1664
0,0,0,1,0,0,0,0,0,1,1665
1,0,0,0,0,1,1,0,1,1,1667
0,0,0,0,0,0,1,0,0,0,1668
0,0,0,1,0,0,0,0,1,0,1669
0,0,0,0,0,0,1,0,0,1,1670
0,0,0,0,0,0,0,0,0,2,1672
0,0,0,0,0,0,0,0,0,1,1673
0,0,0,1,0,0,0,0,0,0,1675
0,0,0,0,0,0,1,0,1,0,1678
0,0,0,2,0,0,1,0,5,0,1680
1,0,0,15,8,3,0,1,1,3,1682
0,0,0,1,0,0,5,1,0,0,1683
0,0,0,0,0,1,0,0,0,0,1686
0,0,0,0,0,0,0,1,0,0,1687
0,0,0,1,0,0,0,0,1,0,1688
0,0,0,0,0,0,1,0,0,1,1693
0,0,0,1,0,0,4,0,3,1,1694
0,1,0,2,0,0,0,0,0,0,1695
0,0,0,3,0,0,0,2,4,0,1696
0,3,0,0,0,0,0,0,0,0,1697
0,0,0,2,3,0,0,0,2,1,1698
0,2,0,2,0,0,1,0,1,1,1701
1,0,0,1,0,1,0,0,0,1,1703
0,0,0,0,0,0,1,0,0,0,1706
0,0,0,0,0,1,0,0,1,0,1707
0,0,0,2,0,0,1,0,0,0,1709
0,5,0,0,0,0,0,0,0,0,1710
1,0,0,2,0,0,2,0,1,4,1712
0,0,0,0,0,0,0,0,0,2,1713
0,0,0,2,1,0,2,0,3,0,1715
1,0,0,3,0,0,9,0,5,0,1717
0,0,0,1,0,0,2,1,1,4,1718
0,0,0,1,0,0,0,0,2,0,1719
0,0,0,0,3,0,2,0,0,0,1720
0,0,0,1,0,0,0,0,0,0,1722
0,0,0,0,0,0,2,0,0,0,1724
0,0,0,5,1,1,0,0,1,0,1726
0,0,0,0,0,0,0,0,0,1,1729
0,0,0,0,0,0,1,1,0,0,1732
1,0,0,1,0,1,0,0,0,0,1733
0,0,0,5,0,0,0,0,0,2,1734
0,0,0,0,0,0,0,0,1,0,1735
0,0,0,0,0,0,7,0,0,0,1737
0,0,0,3,0,0,2,0,3,0,1739
1,0,0,2,0,0,0,0,0,2,1740
1,0,0,0,0,0,1,0,0,0,1742
2,0,0,2,2,0,1,0,3,1,1743
1,0,0,0,0,1,0,0,1,0,1744
0,0,0,3,0,0,1,0,3,2,1745
1,0,0,0,0,0,0,0,0,0,1748
0,9,0,0,0,1,0,0,1,0,1749
0,0,0,1,0,0,0,0,0,0,1750
0,0,0,0,0,0,6,0,4,1,1751
1,0,0,0,0,1,1,0,1,0,1753
0,0,0,0,0,0,3,0,2,0,1754
0,0,0,1,0,0,0,0,1,1,1757
0,0,0,0,0,0,0,0,2,0,1758
0,0,0,0,0,1,0,0,0,0,1759
0,0,0,0,0,0,0,0,1,0,1761
0,0,0,0,0,0,1,1,0,1,1764
0,0,0,0,0,0,0,0,0,1,1765
0,0,0,1,0,0,0,2,1,1,1766
0,0,0,0,0,1,0,0,3,2,1770
0,0,0,1,0,0,1,0,0,0,1771
0,0,0,1,0,0,2,0,0,2,1773
0,0,0,1,0,0,0,0,1,0,1774
0,0,0,0,0,0,2,0,0,0,1775
0,0,0,1,0,0,0,0,0,0,1778
0,1,0,0,0,0,1,0,0,0,1779
0,0,0,0,0,0,1,0,5,0,1783
0,0,0,1,0,1,0,0,0,0,1784
0,0,0,2,0,0,0,0,0,0,1785
0,0,0,1,0,1,0,0,0,0,1789
0,0,0,0,0,0,0,0,1,0,1790
0,0,0,0,0,0,0,0,0,1,1791
0,0,0,0,0,0,0,1,0,0,1793
0,0,0,1,0,0,0,0,1,0,1795
2,0,0,1,0,2,1,0,2,2,1796
0,0,0,4,0,0,0,0,0,3,1797
0,0,0,2,0,1,3,0,1,0,1798
0,0,0,0,0,0,1,0,5,0,1800
0,0,0,1,0,1,4,0,1,0,1801
0,0,0,0,0,1,0,0,0,1,1802
1,0,0,3,0,0,0,0,1,0,1805
0,0,0,1,0,0,1,0,4,0,1806
0,0,0,0,0,0,0,0,0,1,1808
0,2,0,1,0,0,1,2,0,1,1810
0,0,0,1,0,0,1,0,0,1,1813
0,0,0,9,0,0,0,1,3,2,1814
0,0,0,0,0,0,2,0,0,0,1815
1,0,0,0,1,0,2,0,0,3,1818
0,0,0,1,0,0,1,0,2,0,1819
0,0,0,0,0,0,0,0,1,0,1821
0,0,0,0,0,0,2,0,0,0,1822
0,0,0,1,0,0,1,2,0,0,1823
0,0,0,1,0,0,0,0,0,0,1825
0,0,0,1,0,0,1,0,0,0,1826
0,0,0,2,0,0,0,0,0,0,1827
0,0,0,3,0,3,0,0,0,0,1828
0,0,0,1,0,0,0,1,0,2,1829
0,0,0,1,1,0,0,1,0,0,1832
0,1,0,0,0,0,1,0,0,0,1834
0,0,0,0,0,0,0,0,2,0,1835
1,0,0,1,0,1,0,0,2,0,1836
0,0,0,0,2,0,2,0,2,0,1837
0,0,0,0,0,0,1,0,0,0,1838
0,0,0,0,0,0,1,0,0,0,1839
0,0,0,0,0,0,1,0,0,0,1840
0,0,0,2,0,0,0,0,0,1,1841
0,0,0,2,0,0,2,0,1,3,1842
1,0,0,0,0,0,1,0,0,0,1844
0,0,0,0,0,0,1,0,0,0,1846
0,0,0,0,0,0,0,0,1,0,1849
5,0,0,1,0,1,0,0,1,0,1850
0,0,0,0,0,0,0,0,0,1,1851
1,0,0,3,2,0,0,0,1,0,1852
0,0,0,0,0,0,0,0,0,2,1853
0,0,0,2,0,0,0,0,1,1,1855
0,0,0,2,1,0,0,0,0,0,1860
1,0,0,3,1,0,2,0,2,1,1861
0,0,0,3,0,0,0,0,2,1,1864
1,0,0,3,1,3,1,0,7,1,1865
0,0,0,1,2,0,1,1,0,0,1867
0,0,0,2,0,0,2,1,1,0,1869
0,2,0,0,0,0,0,0,0,0,1871
0,0,0,1,0,0,2,0,1,1,1872
0,0,0,1,0,0,0,0,0,0,1873
0,0,0,9,0,0,2,0,2,0,1874
1,0,0,3,1,0,1,0,5,2,1875
0,0,0,1,0,0,0,1,0,1,1876
0,0,0,1,0,0,2,0,0,0,1880
0,0,0,0,0,0,2,0,0,1,1881
0,0,0,2,0,0,1,0,1,0,1882
0,0,0,0,0,0,0,0,0,1,1885
0,0,0,3,0,0,0,1,2,1,1886
0,0,0,0,0,0,0,0,1,0,1888
0,0,0,0,0,0,0,1,0,0,1889
0,0,0,0,0,0,0,0,2,0,1890
0,0,0,4,2,1,0,1,3,2,1894
1,1,0,1,1,0,0,0,2,0,1896
0,0,0,0,0,0,1,0,0,0,1898
0,0,0,0,0,0,0,0,1,0,1900
0,0,0,1,0,0,3,1,0,2,1901
0,1,0,1,0,0,0,0,0,0,1902
0,0,0,0,0,0,1,0,1,0,1903
0,0,0,1,0,0,1,0,0,0,1905
0,0,0,0,0,0,3,0,1,1,1906
0,0,0,0,0,1,1,0,0,2,1907
0,0,0,3,0,0,0,0,4,2,1910
0,0,0,5,0,0,2,0,8,1,1911
0,0,0,0,0,0,0,0,1,0,1913
0,0,0,0,0,1,0,0,2,0,1914
0,0,0,0,0,0,1,0,1,0,1916
0,0,0,0,0,0,0,0,1,0,1917
0,0,0,1,1,0,4,0,0,1,1918
1,0,0,0,0,0,0,0,4,0,1920
0,0,0,0,0,0,0,0,0,1,1922
0,0,0,1,0,0,2,0,2,0,1923
1,0,0,2,0,0,0,0,1,1,1924
0,0,0,1,1,0,2,0,1,0,1926
0,2,0,1,0,0,0,1,1,0,1927
0,0,0,5,0,0,0,0,0,3,1928
1,0,0,1,0,0,0,0,0,1,1931
0,0,0,0,0,0,0,0,1,0,1933
0,0,0,1,0,0,0,0,0,1,1934
0,0,0,1,0,0,0,0,0,2,1935
1,0,0,1,0,0,0,0,1,0,1936
2,0,0,1,0,0,0,0,0,0,1938
0,4,0,0,0,0,1,0,2,1,1940
0,0,0,0,0,0,0,0,1,0,1943
0,0,0,0,0,0,3,0,5,0,1944
0,0,0,3,0,0,0,0,3,2,1945
0,0,0,7,0,0,0,0,0,1,1946
0,0,0,1,1,1,1,0,0,2,1948
0,0,0,2,0,0,2,1,1,0,1949
0,0,0,1,0,0,1,0,0,1,1954
1,0,0,1,0,0,1,0,1,0,1955
0,0,0,1,0,0,0,0,0,0,1956
0,0,0,1,0,1,1,0,2,0,1957
0,0,0,2,0,1,0,0,5,1,1958
0,0,0,1,0,2,0,0,0,0,1959
0,0,0,0,0,0,0,1,1,1,1962
1,0,0,0,1,0,1,1,1,0,1963
2,0,0,1,1,0,0,0,0,2,1964
0,0,0,0,0,0,0,0,0,2,1966
0,0,0,2,0,0,1,0,2,0,1967
0,1,0,2,1,0,1,0,1,2,1968
0,0,0,1,0,0,0,0,1,0,1969
0,0,0,0,1,0,0,3,0,0,1971
2,0,0,2,1,0,0,0,2,2,1973
0,0,0,1,1,0,0,0,0,0,1977
0,0,0,0,0,0,0,1,1,0,1979
0,0,0,0,1,0,0,0,3,2,1980
0,1,0,7,1,0,0,0,7,2,1982
0,0,0,0,0,0,0,0,1,0,1983
0,0,0,1,0,0,3,0,1,1,1985
0,0,0,0,0,0,1,0,0,1,1989
0,0,0,4,0,0,0,2,0,2,1990
0,0,0,5,0,0,0,0,1,0,1993
0,0,0,0,0,0,0,0,0,1,1994
1,3,0,2,0,0,10,0,0,1,1995
0,0,0,0,0,0,1,0,1,0,1996
0,0,0,3,1,1,0,0,3,1,2000
0,0,0,0,0,1,0,0,0,2,2001
0,0,0,2,0,0,2,0,4,1,2004
0,5,0,1,0,1,1,0,0,1,2006
0,0,0,1,0,0,0,2,1,0,2007
0,0,0,0,0,0,2,0,0,0,2008
1,0,0,5,2,0,0,0,3,1,2012
0,0,0,1,0,0,0,0,1,0,2014
1,0,0,0,0,1,2,0,1,0,2015
0,0,0,0,1,0,0,0,1,0,2016
0,0,0,1,0,0,1,0,1,1,2017
0,0,0,0,0,1,0,0,0,0,2019
0,0,0,0,0,0,1,1,1,0,2021
0,0,0,1,0,0,0,0,0,0,2022
0,0,0,0,1,0,4,1,2,0,2025
1,0,0,0,0,0,0,0,0,0,2027
0,0,0,0,1,0,2,0,1,0,2028
0,0,0,3,0,0,1,0,2,1,2029
0,0,0,0,0,1,0,0,0,0,2030
1,1,0,2,0,1,1,0,0,0,2032
0,0,0,1,0,0,0,0,1,0,2035
0,0,0,2,1,0,1,0,0,0,2038
0,0,0,1,0,0,4,1,1,0,2040
0,0,0,2,0,0,0,0,0,0,2041
0,0,0,1,0,0,0,0,0,1,2043
1,0,0,1,0,0,0,0,0,0,2044
1,0,0,5,0,0,1,0,1,1,2045
0,0,0,6,0,0,2,3,3,0,2050
0,0,0,0,0,0,1,0,0,0,2052
0,0,0,0,0,0,2,0,0,0,2053
0,0,0,0,0,0,0,1,0,0,2059
0,0,0,0,0,0,1,0,0,0,2061
0,0,0,0,0,1,0,0,0,0,2062
0,0,0,0,0,0,1,0,0,0,2063
0,0,0,0,0,0,2,0,0,0,2064
0,0,0,0,0,1,1,0,0,0,2065
0,0,0,1,0,0,5,0,2,0,2067
0,0,0,0,0,0,3,0,5,1,2068
0,0,0,3,0,0,2,0,5,0,2070
0,0,0,0,0,0,0,1,1,0,2071
0,0,0,0,0,0,4,0,0,0,2074
0,0,0,2,0,0,2,0,1,2,2077
0,0,0,1,0,0,3,0,0,0,2079
0,0,0,1,0,0,0,0,1,0,2080
0,0,0,2,0,0,1,0,1,0,2081
0,0,0,0,0,0,2,0,2,0,2082
0,1,0,2,0,0,0,0,3,1,2086
0,0,0,0,0,0,0,0,1,0,2087
0,0,0,0,0,0,1,0,1,0,2089
1,0,0,1,0,1,0,0,0,1,2091
1,0,0,1,0,1,0,0,0,1,2092
0,0,0,1,0,0,0,0,0,0,2094
0,0,0,3,2,0,0,1,1,3,2095
0,0,0,0,0,1,1,0,1,0,2097
0,0,0,0,0,0,1,0,2,0,2098
0,0,0,1,0,0,2,0,0,0,2100
0,0,0,0,0,0,0,0,1,0,2102
0,0,0,0,0,0,1,0,0,0,2103
0,0,0,0,1,0,0,1,0,0,2105
0,0,0,0,0,0,1,0,0,0,2106
0,0,0,0,0,0,1,2,4,0,2107
0,0,0,1,0,0,1,0,1,0,2108
0,0,0,1,0,0,1,0,0,0,2109
0,0,0,0,0,0,1,0,0,0,2110
0,0,0,0,0,1,0,0,0,0,2114
0,0,0,1,0,0,0,0,0,1,2117
0,0,0,0,0,0,1,0,1,1,2119
0,0,0,0,0,0,1,0,0,0,2121
0,0,0,2,0,0,0,0,0,2,2122
0,0,0,0,0,0,0,0,1,0,2124
0,1,0,0,0,0,0,0,0,0,2125
0,0,0,0,0,0,0,0,1,1,2126
0,0,0,1,0,0,0,0,0,0,2127
0,0,0,0,0,0,2,0,0,0,2129
1,0,0,4,1,1,1,0,0,1,2130
0,1,0,10,2,0,3,2,7,8,2131
1,0,0,1,0,1,0,0,0,1,2132
4,0,0,3,0,0,1,0,1,0,2135
0,0,0,0,0,0,1,0,1,0,2136
0,0,0,1,0,0,0,0,0,0,2137
0,1,0,0,0,0,0,0,5,0,2138
0,0,0,0,0,0,0,0,0,1,2139
0,0,0,0,0,0,2,0,1,0,2140
0,0,0,3,0,1,0,0,0,1,2141
0,0,0,0,0,1,1,0,2,0,2142
0,0,0,0,0,0,0,0,0,2,2144
1,0,0,1,0,2,1,0,0,1,2149
0,0,0,0,0,0,1,0,0,0,2150
0,0,0,0,0,0,1,0,0,0,2153
0,0,0,1,0,0,0,0,0,0,2158
0,0,0,1,1,0,1,0,0,0,2160
0,0,0,0,0,1,0,0,0,0,2161
0,0,0,0,0,0,0,0,2,0,2162
0,1,0,0,0,1,2,0,0,1,2163
0,0,0,6,0,0,1,0,3,2,2165
0,0,0,0,1,0,2,0,0,0,2166
0,0,0,3,0,0,0,0,3,0,2167
0,0,0,1,0,0,0,0,0,0,2168
0,1,0,3,0,0,0,0,0,0,2169
0,0,0,0,1,0,0,0,0,2,2173
0,0,0,1,0,0,0,1,4,2,2174
0,0,0,2,0,0,0,0,4,0,2177
0,0,0,0,0,1,1,0,1,0,2178
0,0,0,2,0,0,4,0,0,0,2180
0,0,0,0,0,0,3,1,1,0,2181
0,0,0,6,0,1,0,0,9,0,2183
1,0,0,8,1,0,1,0,3,1,2185
0,0,0,2,1,1,1,0,1,0,2186
0,0,0,1,0,1,0,0,1,0,2188
0,6,0,0,0,1,0,0,0,0,2189
3,0,0,1,0,2,1,0,0,0,2195
0,0,0,1,0,0,0,0,1,0,2197
0,0,0,0,0,0,0,0,3,0,2200
0,0,0,1,0,0,1,0,1,3,2202
0,0,0,4,2,0,0,0,5,2,2203
0,0,0,3,1,0,0,0,1,0,2204
0,0,0,1,1,0,1,0,0,0,2207
0,1,0,0,0,0,0,0,0,0,2208
0,0,0,2,0,0,0,0,2,1,2209
0,0,0,0,0,0,1,0,0,2,2211
0,0,0,1,0,0,4,2,0,0,2214
1,0,0,0,0,0,0,0,0,0,2215
0,0,0,1,0,1,4,0,3,0,2218
0,0,0,0,0,0,4,0,0,0,2219
0,0,0,0,0,0,0,0,1,1,2221
0,0,0,0,0,0,0,1,0,0,2222
0,0,0,0,0,0,1,0,0,1,2224
2,0,0,1,0,1,1,0,0,1,2225
0,0,0,0,0,0,3,0,2,0,2226
0,0,0,1,1,0,0,0,0,0,2230
1,0,0,6,1,0,1,0,1,0,2231
0,0,0,0,0,0,1,0,1,0,2233
0,0,0,1,0,0,6,0,0,1,2234
0,0,0,1,0,0,2,0,5,1,2237
0,0,0,0,0,0,0,0,1,0,2238
0,0,0,4,0,0,0,1,0,1,2239
0,0,0,1,0,0,1,0,1,0,2241
0,1,0,3,0,0,2,0,0,0,2242
1,0,0,1,0,0,2,0,1,0,2246
0,0,0,0,0,0,0,1,1,1,2248
0,0,0,0,0,0,1,0,0,1,2253
0,1,0,1,1,0,0,0,1,0,2254
0,0,0,1,0,0,1,0,0,1,2256
1,0,0,2,0,0,0,0,0,1,2257
0,0,0,0,0,0,0,0,0,1,2258
0,0,0,1,0,0,4,0,3,1,2259
0,0,0,2,0,1,0,1,0,2,2260
0,0,0,1,0,0,0,0,0,1,2261
0,0,0,0,2,1,2,0,3,0,2263
0,0,0,0,0,0,1,0,0,0,2266
0,0,0,2,0,0,1,0,0,0,2268
0,0,0,4,1,2,0,0,2,2,2269
0,0,0,1,0,0,2,0,0,0,2270
1,0,0,0,0,0,1,0,0,1,2271
0,0,0,0,0,1,0,0,0,1,2272
0,0,0,1,0,0,1,0,1,1,2274
0,0,0,0,0,0,0,0,1,0,2277
0,0,0,1,0,1,0,0,2,0,2278
0,0,0,2,0,0,0,0,0,0,2281
0,0,0,1,0,1,2,0,1,0,2283
1,0,0,0,1,0,0,0,2,0,2284
0,0,0,0,1,0,0,0,0,0,2285
0,0,0,0,0,0,1,0,1,0,2288
0,1,0,0,0,0,3,0,1,1,2289
0,0,0,0,0,0,1,1,0,0,2290
0,0,0,2,3,0,3,1,1,2,2292
0,0,0,1,0,0,1,0,0,0,2296
0,0,0,0,0,0,0,0,0,1,2297
0,1,0,0,0,0,0,0,0,0,2299
0,0,0,1,0,0,0,0,0,1,2303
0,0,0,1,0,0,0,0,1,1,2304
0,0,0,0,0,0,0,0,0,2,2305
0,0,0,3,0,0,1,0,0,0,2306
0,0,0,0,0,0,1,0,0,1,2308
0,0,0,5,1,2,0,0,1,0,2309
0,0,0,0,0,1,0,0,0,0,2310
0,0,0,0,0,0,0,0,1,0,2311
1,0,0,0,0,0,0,2,3,0,2312
0,0,0,0,0,0,0,0,1,0,2313
1,0,0,1,0,0,1,0,6,0,2314
0,0,0,0,0,1,2,0,1,0,2315
0,0,0,2,0,0,0,0,1,3,2316
0,0,0,0,0,0,2,0,3,2,2317
0,2,0,0,0,0,0,0,0,0,2318
0,0,0,0,0,0,1,0,0,0,2319
0,0,0,0,1,0,1,0,1,0,2323
0,0,0,1,0,0,0,0,0,0,2324
2,5,0,1,0,0,3,0,2,1,2325
0,0,0,1,4,0,0,0,0,0,2326
0,0,0,1,2,0,2,0,1,0,2328
0,0,0,0,0,0,1,0,0,0,2329
0,1,0,3,2,1,8,1,8,0,2331
0,0,0,1,1,0,0,1,0,0,2332
0,0,0,1,3,0,0,1,0,2,2333
0,0,0,0,1,0,0,0,0,1,2335
0,0,0,1,0,0,2,0,2,2,2337
0,0,0,0,0,1,0,0,0,0,2338
0,1,0,0,0,0,0,0,2,1,2339
0,0,0,0,0,0,1,0,3,1,2341
0,0,0,0,1,2,1,1,0,1,2342
0,0,0,1,0,1,0,0,0,0,2343
0,0,0,1,0,1,1,0,2,1,2344
0,0,0,0,0,1,0,0,0,0,2346
0,0,0,6,0,0,0,0,1,0,2347
0,0,0,3,1,0,0,0,0,0,2349
0,0,0,3,1,0,2,0,1,0,2351
1,0,0,2,0,0,0,0,3,1,2354
2,0,0,0,0,0,3,0,1,0,2355
0,0,0,1,0,1,2,1,1,0,2357
0,0,0,2,0,0,0,0,0,0,2358
0,0,0,0,0,1,0,0,0,0,2360
0,0,0,1,0,1,0,0,0,0,2361
0,0,0,2,0,0,0,0,2,1,2363
0,0,0,2,0,0,6,0,1,2,2364
0,0,0,0,0,1,3,0,0,0,2365
0,0,0,1,0,0,2,0,0,0,2366
0,0,0,0,0,0,0,0,1,0,2368
0,0,0,0,0,0,0,0,0,1,2369
0,0,0,3,0,0,0,0,1,0,2370
0,0,0,2,0,0,0,0,1,0,2371
2,0,0,1,1,0,1,0,0,1,2372
0,0,0,0,0,0,1,0,0,0,2374
0,0,0,0,0,0,1,0,0,0,2375
0,0,0,1,0,0,1,0,2,0,2379
0,0,0,3,0,0,1,0,2,1,2380
0,0,0,0,0,0,0,1,1,1,2381
0,0,0,7,4,1,0,0,3,3,2384
0,0,0,2,0,0,6,0,1,1,2386
0,0,0,1,0,0,3,0,6,0,2387
0,0,0,0,0,0,0,0,2,0,2388
0,1,0,2,0,0,1,1,1,2,2390
0,0,0,0,0,0,1,0,0,0,2391
0,0,0,1,0,0,5,0,1,0,2395
0,0,0,1,1,0,0,0,2,0,2396
0,0,0,1,0,0,0,1,0,2,2397
0,0,0,1,0,0,0,0,2,0,2399
0,0,0,7,3,0,0,0,0,0,2400
0,0,0,0,0,0,1,0,0,0,2401
0,0,0,3,1,0,1,0,0,0,2402
0,0,0,1,0,1,0,0,1,0,2403
0,0,0,0,0,0,0,0,0,1,2405
0,0,0,0,0,0,0,1,0,0,2406
0,0,0,1,0,0,0,0,0,1,2407
0,0,0,0,0,1,0,0,0,0,2410
0,1,0,1,0,0,1,0,0,1,2413
0,0,0,0,1,0,0,0,1,1,2414
0,0,0,3,1,0,0,0,1,0,2415
0,0,0,8,0,1,0,0,1,1,2418
0,0,0,1,0,0,0,1,0,0,2419
0,0,0,0,0,0,0,1,0,0,2420
1,0,0,2,0,1,8,0,5,1,2421
0,0,0,5,2,0,0,0,1,1,2422
0,0,0,2,0,2,0,0,0,0,2425
0,0,0,2,0,0,1,0,0,0,2426
0,0,0,0,0,0,2,0,1,0,2429
0,0,0,0,0,1,0,0,2,0,2430
0,0,0,7,1,0,0,0,0,0,2431
1,0,0,0,1,0,0,0,0,0,2432
1,0,0,1,1,0,0,1,0,0,2433
0,0,0,1,1,0,1,0,0,0,2434
0,0,0,2,0,0,1,0,2,0,2435
0,0,0,0,0,0,1,0,0,0,2436
0,0,0,0,0,0,0,0,2,0,2438
0,0,0,2,0,2,1,0,1,1,2440
0,0,0,21,0,0,0,1,10,6,2441
0,0,0,0,0,0,1,0,0,1,2442
0,0,0,1,2,0,0,1,0,0,2443
0,1,0,0,1,0,1,0,0,0,2447
0,0,0,0,0,1,0,0,0,0,2448
0,0,0,1,2,0,0,0,1,0,2449
0,0,0,0,0,0,0,0,1,0,2450
0,0,0,2,0,0,3,0,2,0,2452
0,0,0,2,0,0,0,0,0,0,2455
0,0,0,4,0,0,0,1,4,1,2457
0,1,0,2,0,1,1,0,0,0,2459
0,0,0,1,0,0,0,1,1,0,2460
1,0,0,0,0,2,1,0,2,0,2463
0,0,0,0,1,0,0,3,0,0,2464
0,0,0,2,0,0,0,0,1,1,2465
0,0,0,1,0,0,1,0,0,0,2467
0,0,0,5,0,0,0,0,1,0,2468
0,0,0,0,0,1,0,0,0,0,2469
0,0,0,1,0,0,3,0,0,1,2470
0,0,0,0,0,0,0,0,1,0,2471
0,0,0,2,0,0,0,0,0,0,2472
0,0,0,1,0,1,1,0,0,0,2474
0,0,0,0,0,0,0,0,0,1,2475
0,0,0,0,0,0,0,0,0,1,2477
0,0,0,0,1,0,1,0,1,0,2479
0,0,0,2,0,0,1,0,1,0,2480
0,0,0,1,0,1,1,0,0,0,2482
0,23,0,2,0,0,2,0,1,0,2483
0,0,0,0,0,1,0,0,0,0,2484
0,0,0,0,0,3,1,0,2,0,2485
0,6,0,1,1,0,0,0,0,0,2487
1,0,0,0,0,0,1,0,2,0,2488
0,0,0,14,1,0,1,0,8,3,2489
0,0,0,2,0,0,0,1,1,1,2491
0,0,0,0,0,0,1,0,0,1,2496
0,0,0,7,1,1,2,0,4,3,2497
0,0,0,0,0,0,1,0,0,0,2498
1,2,0,3,0,0,0,0,1,0,2499
0,0,0,0,0,0,1,0,0,0,2501
0,0,0,4,1,0,0,0,1,0,2502
1,0,0,0,0,0,0,0,0,0,2503
0,0,0,2,0,0,0,0,1,0,2504
0,0,0,0,0,0,0,0,0,1,2505
0,0,0,7,1,1,2,0,9,0,2507
0,0,0,0,0,1,0,0,0,0,2508
0,1,0,1,0,0,0,0,1,0,2509
0,0,0,0,0,0,0,0,1,2,2510
0,0,0,4,0,0,2,0,1,0,2512
0,0,0,5,0,0,0,0,0,0,2513
0,0,0,0,0,0,0,0,2,0,2514
0,0,0,1,0,0,0,0,0,1,2515
0,0,0,1,0,0,0,1,0,0,2516
0,0,0,0,0,0,0,0,0,1,2518
1,0,0,0,0,0,1,0,6,0,2519
0,0,0,0,0,0,1,0,3,1,2520
0,0,0,1,0,1,0,0,1,1,2521
0,0,0,0,0,0,0,0,1,2,2525
0,0,0,0,0,0,1,0,0,0,2528
0,1,0,0,0,1,0,0,0,0,2530
0,1,0,2,0,0,0,1,1,0,2531
0,1,0,0,0,0,1,0,5,0,2532
0,0,0,0,0,0,3,0,0,0,2533
0,0,0,0,0,0,0,0,1,0,2536
0,0,0,1,0,0,1,0,0,0,2537
0,0,0,1,0,0,0,0,0,1,2538
0,0,0,0,0,0,2,0,0,2,2539
0,0,0,0,0,0,0,0,0,1,2541
1,0,0,0,0,1,0,0,0,0,2542
0,0,0,2,2,0,0,0,0,0,2544
0,0,0,2,0,0,0,0,2,0,2546
0,0,0,0,0,0,0,0,1,1,2547
0,0,0,1,0,0,0,0,3,0,2548
0,0,0,3,0,1,1,0,1,1,2549
0,0,0,2,0,2,0,0,3,0,2551
1,0,0,3,0,0,2,1,2,2,2554
0,0,0,1,0,1,2,0,4,0,2555
0,5,0,0,0,0,0,0,0,0,2556
0,0,0,0,0,0,0,0,1,0,2558
1,0,0,6,1,0,3,0,2,3,2559
0,0,0,0,0,0,2,0,0,0,2561
0,0,0,0,0,0,1,0,2,0,2563
1,0,0,3,0,0,1,0,0,0,2564
0,0,0,0,0,0,1,0,5,0,2566
1,0,0,2,0,2,0,0,0,2,2568
0,0,0,0,0,0,2,0,0,0,2569
0,0,0,0,0,0,0,1,0,0,2570
0,0,0,0,0,0,1,0,0,0,2572
0,0,0,0,0,0,1,0,5,1,2573
0,0,0,0,0,1,0,0,0,0,2577
0,0,0,3,0,2,1,0,0,0,2578
0,0,0,0,0,1,0,0,2,0,2579
0,0,0,0,0,0,0,1,2,0,2580
0,0,0,0,0,0,0,1,0,1,2583
0,0,0,0,0,0,0,1,0,0,2584
0,0,0,1,0,0,0,0,1,0,2585
1,1,0,1,0,0,0,0,0,0,2589
0,0,0,1,0,0,1,0,1,0,2593
0,0,0,4,0,0,0,0,0,0,2595
0,0,0,1,0,1,1,1,2,0,2596
0,0,0,5,0,0,2,0,3,0,2597
0,0,0,0,0,0,0,0,0,2,2598
0,0,0,0,0,1,0,0,0,0,2599
0,0,0,0,0,0,0,1,0,1,2601
0,0,0,0,0,1,0,0,0,0,2602
1,0,0,7,0,0,0,0,1,0,2603
0,0,0,4,0,0,0,0,0,0,2604
0,0,0,2,0,0,6,1,4,3,2606
1,1,0,2,0,0,0,1,3,0,2607
0,0,0,1,0,0,0,0,0,0,2609
0,0,0,0,0,0,1,0,1,0,2613
0,0,0,1,0,1,3,0,0,0,2615
0,0,0,0,0,0,1,0,0,0,2616
0,0,0,3,0,1,0,0,0,0,2618
0,0,0,0,0,0,0,0,1,2,2619
0,1,0,2,3,0,1,0,0,0,2620
0,0,0,0,0,0,1,0,0,0,2621
0,0,0,0,0,0,0,0,0,1,2622
0,0,0,0,0,1,0,0,0,0,2623
0,0,0,0,2,0,0,1,0,1,2624
0,0,0,0,0,1,1,0,0,0,2625
0,0,0,0,0,0,1,0,2,0,2626
0,0,0,1,0,0,3,1,0,0,2629
0,0,0,2,0,0,1,1,1,0,2630
0,0,0,0,0,0,1,0,0,0,2631
0,0,0,0,0,0,0,1,0,1,2633
0,1,0,0,1,0,1,1,1,0,2634
0,0,0,15,1,0,0,0,1,1,2635
0,0,0,0,0,0,0,0,2,0,2636
0,0,0,0,0,0,1,0,1,0,2637
0,0,0,3,2,0,1,0,4,0,2638
0,0,0,0,1,0,0,0,0,1,2639
0,0,0,0,0,0,1,0,0,0,2640
0,0,0,1,0,0,0,0,0,1,2641
0,0,0,0,0,2,1,0,2,0,2643
0,0,0,0,1,0,3,0,0,1,2644
0,0,0,2,0,0,2,0,0,1,2646
0,0,0,1,0,0,0,0,2,1,2647
0,0,0,0,0,0,0,0,1,0,2648
0,0,0,1,0,0,0,0,0,0,2649
0,0,0,3,0,0,0,0,2,0,2650
0,0,0,0,0,0,3,0,1,0,2651
0,1,0,2,0,2,2,0,0,0,2652
0,0,0,0,0,0,1,0,0,0,2653
0,0,0,2,0,1,0,0,1,1,2655
0,0,0,1,1,0,3,0,1,0,2656
0,0,0,1,0,0,0,0,0,1,2658
0,0,0,0,0,0,0,1,2,0,2659
0,1,0,1,0,0,0,0,0,1,2660
0,0,0,0,0,0,0,2,0,0,2661
0,0,0,0,0,0,2,0,0,0,2664
0,0,0,0,0,0,0,0,1,1,2666
0,0,0,2,0,0,1,0,9,0,2668
0,0,0,1,0,0,0,0,0,0,2669
0,0,0,0,0,1,0,0,4,0,2670
0,0,0,1,0,1,1,0,0,0,2671
0,0,0,0,0,0,1,0,1,0,2672
0,0,0,0,0,1,1,0,0,1,2675
0,0,0,0,0,0,1,0,0,0,2676
0,0,0,1,0,0,0,0,0,2,2677
0,0,0,0,0,1,0,1,1,0,2678
0,0,0,2,0,1,0,0,0,0,2679
0,1,0,0,0,0,0,1,0,0,2681
0,0,0,0,0,0,2,1,0,1,2682
0,0,0,0,0,0,1,0,1,0,2683
0,0,0,1,0,0,1,0,0,1,2684
0,0,0,1,0,0,1,0,3,5,2687
0,0,0,0,0,0,0,0,1,0,2688
0,0,0,2,0,0,1,0,1,0,2690
0,0,0,0,0,0,0,0,2,0,2692
0,0,0,0,0,0,1,0,0,0,2695
0,0,0,3,0,0,0,0,3,0,2696
1,0,0,0,0,0,0,1,0,2,2697
0,0,0,2,0,0,0,0,0,0,2698
0,1,0,2,0,0,0,0,3,3,2699
0,0,0,3,0,1,0,0,0,0,2700
0,0,0,1,0,0,2,0,1,0,2701
0,0,0,0,0,0,2,0,1,0,2703
3,0,0,5,2,0,2,0,2,6,2705
0,0,0,1,0,0,0,0,2,1,2706
1,1,0,1,0,0,0,0,0,0,2707
0,0,0,0,0,0,1,0,0,0,2708
0,0,0,1,0,0,0,1,1,0,2709
1,1,0,0,0,1,2,1,0,0,2710
0,0,0,1,0,0,1,0,1,0,2711
0,0,0,2,0,0,0,1,0,0,2713
0,0,0,0,0,1,0,0,0,0,2714
0,0,0,0,0,0,1,0,1,1,2718
0,1,0,1,0,1,2,0,2,0,2720
0,0,0,1,0,0,1,0,0,1,2721
0,0,0,0,0,0,0,0,0,1,2723
0,0,0,0,0,1,0,0,0,0,2724
0,0,0,0,0,2,0,0,0,0,2725
0,0,0,0,0,1,1,0,0,0,2726
0,0,0,1,0,0,0,0,0,0,2727
0,0,0,2,1,0,2,0,2,3,2728
0,0,0,1,0,0,1,0,0,0,2729
0,0,0,1,0,0,0,0,0,0,2732
0,0,0,1,0,0,2,0,0,0,2733
0,0,0,1,2,0,0,0,0,1,2734
0,0,0,4,0,0,0,0,3,1,2735
0,0,0,0,0,0,1,0,1,1,2737
0,0,0,3,0,0,1,0,0,0,2742
0,1,0,0,0,0,1,0,0,0,2743
0,0,0,0,0,1,1,0,0,2,2744
0,0,0,0,0,0,0,0,0,1,2745
0,0,0,2,1,1,0,1,1,2,2747
0,0,0,6,2,0,3,2,6,0,2750
0,0,0,1,0,0,0,0,0,0,2751
0,0,0,1,0,0,4,0,1,0,2752
0,0,0,2,0,0,0,1,0,1,2754
0,0,0,1,0,0,3,0,1,0,2756
0,0,0,0,0,0,0,0,2,0,2757
1,0,0,1,0,0,1,0,2,0,2758
0,0,0,0,0,0,2,0,0,1,2763
0,0,0,0,0,1,0,0,0,0,2764
0,0,0,0,0,0,0,0,3,0,2767
0,0,0,1,0,0,1,0,0,1,2768
0,1,0,7,0,1,1,0,4,0,2769
0,0,0,2,0,0,0,0,0,0,2770
0,0,0,0,1,0,0,0,1,1,2775
1,0,0,2,0,0,0,0,0,0,2776
0,0,0,1,0,0,0,0,0,0,2777
0,0,0,0,1,0,1,0,0,0,2779
0,0,0,1,0,1,0,0,1,0,2780
0,1,0,1,0,1,0,1,2,1,2781
0,0,0,1,0,0,0,0,0,0,2783
0,0,0,0,0,0,1,0,0,1,2787
0,7,0,1,0,1,1,0,0,0,2788
0,0,0,1,0,0,0,0,2,1,2789
0,0,0,0,0,0,1,0,0,0,2792
0,0,0,1,0,1,0,0,2,0,2793
0,0,0,1,0,1,0,0,0,0,2795
0,0,0,0,0,0,0,0,1,0,2796
1,0,0,3,0,0,0,0,3,1,2797
0,0,0,0,2,1,0,0,0,0,2803
0,0,0,0,0,0,1,0,0,0,2805
0,2,0,1,0,0,0,0,0,2,2806
0,0,0,0,0,0,0,0,2,0,2807
0,0,0,0,0,1,0,0,0,0,2808
0,0,0,1,0,1,0,0,0,1,2809
0,0,0,0,1,0,0,0,0,0,2812
0,0,0,1,0,1,0,0,0,0,2813
0,0,0,0,0,1,2,0,2,1,2814
0,0,0,0,0,0,3,0,0,0,2815
0,0,0,1,0,0,0,2,1,3,2816
0,0,0,0,0,0,0,0,1,0,2819
0,0,0,1,0,0,0,0,0,0,2822
1,0,0,6,0,0,0,0,9,1,2823
0,0,0,0,0,0,0,1,0,0,2824
0,0,0,0,0,0,1,0,1,0,2825
0,0,0,0,0,0,0,1,1,0,2829
0,0,0,0,0,0,0,0,1,1,2830
0,2,0,1,0,0,0,0,1,2,2831
2,0,0,6,0,0,0,0,18,0,2833
0,0,0,3,0,0,0,0,3,0,2834
0,0,0,2,0,0,0,0,0,0,2836
0,0,0,0,0,0,1,0,0,1,2837
0,0,0,4,0,0,0,0,0,0,2838
0,0,0,5,0,0,1,0,2,0,2839
2,0,0,0,0,1,2,0,0,1,2840
0,0,0,1,0,0,0,0,1,0,2841
0,0,0,1,0,1,3,0,3,1,2842
0,0,0,0,0,0,1,0,0,0,2844
0,0,0,0,0,0,1,0,0,0,2845
0,0,0,2,0,0,0,0,0,0,2846
0,0,0,6,0,0,0,0,5,2,2848
0,0,0,1,0,0,0,1,0,0,2849
0,0,0,2,0,0,1,1,2,1,2850
0,0,0,4,0,1,2,0,1,1,2851
0,0,0,3,3,0,1,0,2,1,2852
0,0,0,1,5,0,1,0,0,1,2853
0,0,0,0,1,0,0,0,0,0,2855
0,0,0,0,0,0,0,0,2,0,2856
0,1,0,3,0,0,3,0,7,0,2857
0,0,0,2,0,1,3,0,4,0,2859
0,0,0,1,0,0,0,0,0,1,2860
0,0,0,1,0,0,0,0,2,0,2861
0,1,0,2,0,0,1,0,0,0,2862
0,0,0,0,0,0,0,0,1,1,2863
2,0,0,2,0,0,0,0,2,1,2864
0,1,0,2,0,0,0,1,4,0,2869
0,0,0,2,0,0,4,0,0,0,2870
0,0,0,0,0,0,0,1,0,0,2872
0,0,0,0,1,0,2,1,0,0,2875
1,0,0,0,0,0,0,0,1,0,2879
0,0,0,0,0,0,2,0,1,0,2881
0,0,0,0,0,0,0,1,0,0,2882
0,0,0,3,0,0,0,1,2,1,2883
0,0,0,1,0,0,0,0,0,0,2886
0,0,0,2,1,0,0,1,1,0,2888
0,0,0,0,0,0,2,0,1,0,2889
0,0,0,2,0,0,1,0,0,0,2890
0,0,0,3,1,0,1,0,0,1,2891
0,0,0,0,0,0,1,0,0,0,2892
0,0,0,1,1,0,0,0,0,0,2893
0,0,0,2,1,1,0,0,3,0,2894
0,0,0,0,0,0,0,1,1,0,2895
0,0,0,3,0,0,0,0,2,0,2896
0,0,0,2,0,0,0,2,0,0,2898
0,0,0,2,0,0,0,2,5,2,2899
0,0,0,0,1,0,3,0,2,0,2900
0,0,0,0,0,1,0,0,1,0,2904
0,0,0,4,0,0,4,0,0,1,2905
0,0,0,1,0,0,0,0,0,0,2906
0,0,0,2,0,0,0,0,0,0,2907
0,0,0,0,2,0,0,0,3,1,2908
0,0,0,0,0,1,0,0,0,0,2909
0,0,0,0,0,1,0,0,0,0,2911
0,0,0,0,0,0,0,1,0,0,2912
0,1,0,0,0,1,0,0,0,0,2913
0,0,0,0,0,0,1,0,1,0,2916
0,0,0,2,0,0,1,0,2,0,2917
0,0,0,0,1,0,0,0,0,0,2919
1,1,0,0,0,0,0,0,0,0,2920
0,0,0,0,0,0,0,1,0,0,2922
0,0,0,1,0,0,1,0,1,0,2926
1,0,0,1,0,0,0,0,1,0,2927
1,0,0,1,0,0,0,0,1,0,2929
0,0,0,2,1,2,0,0,3,4,2932
0,0,0,0,0,0,1,0,0,0,2934
1,0,0,3,0,0,2,1,4,0,2936
0,1,0,3,0,2,6,1,8,0,2937
1,0,0,6,0,0,0,0,0,1,2938
0,0,0,0,0,0,1,0,0,0,2939
0,0,0,1,0,1,0,0,0,0,2940
0,0,0,2,0,0,0,0,3,0,2941
0,0,0,0,0,0,1,1,0,0,2942
0,0,0,0,0,0,2,0,1,0,2943
0,0,0,1,0,0,0,0,2,0,2945
0,0,0,0,0,1,0,1,0,0,2946
0,0,0,4,0,0,2,0,6,0,2948
0,0,0,2,0,0,2,0,5,1,2949
0,0,0,0,0,1,1,0,0,0,2951
0,0,0,2,0,0,0,0,0,1,2952
0,0,0,1,0,0,2,1,1,0,2953
0,0,0,0,0,1,0,0,0,3,2955
0,0,0,0,0,0,0,0,1,0,2956
0,0,0,2,0,0,0,0,5,0,2958
0,0,0,1,0,0,2,0,4,1,2959
1,0,0,3,0,0,0,0,0,1,2960
0,0,0,1,0,0,2,0,1,0,2962
0,0,0,3,3,1,1,0,3,0,2963
0,0,0,0,0,0,0,0,1,0,2964
0,2,0,1,0,0,4,0,3,5,2965
0,0,0,0,0,1,0,0,0,0,2967
0,0,0,0,0,0,1,0,0,0,2972
0,0,0,0,0,0,0,0,1,1,2974
0,0,0,0,0,1,2,1,0,0,2975
0,0,0,0,0,0,1,0,0,0,2978
0,0,0,1,0,0,0,0,0,0,2979
0,0,0,0,0,0,1,0,2,1,2980
0,0,0,2,0,0,1,0,1,0,2982
0,0,0,3,0,0,3,0,6,2,2984
0,1,0,1,0,0,0,0,0,0,2985
0,0,0,0,0,0,1,2,0,0,2986
1,0,0,0,0,1,0,0,1,1,2987
1,0,0,2,0,0,0,0,0,0,2988
1,0,0,0,0,1,1,0,5,0,2989
0,0,0,2,0,0,0,0,0,0,2990
0,0,0,0,1,0,1,0,0,0,2993
0,0,0,0,0,0,1,0,1,0,2994
0,0,0,4,1,0,3,1,1,3,2997
0,0,0,1,0,0,0,0,3,0,2998
0,0,0,2,0,0,0,0,2,0,3001
1,0,0,1,0,1,1,0,0,2,3002
0,1,0,0,0,0,0,1,0,0,3003
0,0,0,0,1,0,0,0,0,0,3004
0,0,0,0,0,0,0,0,1,0,3006
0,0,0,0,0,0,1,0,0,0,3007
0,0,0,0,0,0,1,1,1,1,3008
0,0,0,0,0,0,1,0,0,0,3009
0,0,0,0,0,1,1,1,0,2,3010
0,0,0,1,0,0,0,0,0,0,3011
0,0,0,8,4,1,1,2,1,5,3013
0,0,0,1,2,1,0,0,0,0,3015
0,1,0,0,0,0,0,0,1,0,3016
0,0,0,0,0,0,0,0,1,0,3017
2,0,0,1,0,1,2,0,0,1,3018
0,0,0,5,1,0,3,0,2,0,3020
0,0,0,2,0,0,0,0,1,1,3021
0,0,0,1,0,1,0,0,1,0,3022
0,0,0,0,0,0,0,1,1,0,3023
0,0,0,2,0,1,0,1,2,1,3024
1,0,0,8,0,1,0,0,0,0,3025
0,0,0,2,0,0,0,0,1,0,3026
0,0,0,0,0,0,0,0,0,1,3028
0,0,0,0,0,0,0,0,1,0,3030
0,0,0,0,0,0,1,0,0,1,3031
0,0,0,0,0,0,0,0,1,0,3036
0,0,0,0,0,1,1,0,0,0,3037
0,1,0,1,0,0,0,0,0,0,3039
0,2,0,0,0,0,2,0,0,0,3040
0,0,0,1,2,0,2,1,2,0,3042
0,0,0,0,0,0,1,0,2,0,3044
0,0,0,0,0,0,0,0,1,0,3045
0,0,0,0,0,0,2,0,0,0,3046
0,0,0,1,0,0,0,0,1,0,3047
0,0,0,3,3,0,1,1,1,2,3048
0,0,0,2,0,0,1,0,1,1,3049
0,0,0,1,0,0,0,1,0,1,3050
1,0,0,3,0,0,0,0,2,1,3051
0,0,0,1,0,0,0,0,1,0,3053
0,0,0,0,0,0,0,0,0,1,3054
0,0,0,2,0,0,0,0,1,0,3057
0,0,0,0,0,1,0,0,0,1,3058
2,0,0,1,0,1,0,0,0,0,3059
0,0,0,0,0,0,1,0,0,0,3060
1,0,0,0,0,0,2,0,0,0,3062
0,1,0,0,0,0,0,0,0,0,3064
0,0,0,1,0,0,0,0,0,1,3067
0,0,0,3,0,0,0,0,0,0,3069
0,0,0,0,0,0,1,0,0,0,3070
0,1,0,4,0,0,2,1,1,0,3072
0,0,0,0,0,0,0,0,0,1,3073
0,0,0,3,1,0,0,0,0,1,3074
0,0,0,0,0,0,1,1,1,0,3075
0,0,0,2,0,0,0,0,0,0,3078
0,0,0,1,0,1,0,0,3,0,3079
1,2,0,3,1,0,5,2,2,0,3080
1,0,0,1,0,0,2,0,3,0,3083
0,0,0,2,0,0,0,1,2,0,3084
0,0,0,1,0,0,0,0,2,0,3086
0,0,0,1,0,0,2,0,1,0,3087
0,0,0,5,0,0,0,2,3,0,3089
1,0,0,4,0,0,1,0,2,1,3093
0,0,0,0,0,0,1,0,0,0,3095
0,0,0,2,0,0,1,0,1,0,3096
0,0,0,2,0,0,0,0,1,0,3098
1,1,0,0,0,0,2,0,2,0,3102
0,0,0,4,1,0,0,0,2,1,3103
1,2,0,0,0,0,0,0,1,2,3105
0,0,0,0,0,1,1,0,0,0,3106
0,0,0,0,0,0,0,0,1,0,3107
0,0,0,0,0,0,1,0,0,1,3108
0,1,0,0,0,0,0,0,3,0,3109
2,0,0,1,0,0,0,0,1,1,3110
0,0,0,11,3,0,0,0,1,1,3111
0,0,0,2,0,0,0,0,1,0,3112
1,1,0,1,0,0,0,2,1,0,3114
0,0,0,1,0,0,0,0,0,0,3115
0,0,0,0,0,0,0,0,2,0,3116
1,0,0,9,0,1,0,1,1,1,3117
0,0,0,0,0,1,0,0,1,0,3118
0,0,0,0,0,0,0,0,1,1,3119
2,0,0,2,1,0,4,0,2,0,3120
0,0,0,0,0,0,0,0,1,0,3123
0,0,0,2,0,0,1,0,3,0,3124
0,1,0,5,0,0,1,0,4,1,3125
0,0,0,3,0,0,0,1,0,0,3127
0,0,0,4,2,0,0,0,2,2,3128
0,0,0,5,2,0,1,0,5,0,3129
2,1,0,2,3,0,0,1,1,4,3130
0,0,0,1,0,0,0,0,1,0,3132
0,0,0,0,0,1,1,0,0,2,3134
0,0,0,0,0,0,0,1,0,0,3135
0,0,0,3,0,0,0,0,0,0,3136
0,0,0,2,0,0,1,0,1,0,3137
0,0,0,2,0,1,0,0,0,0,3138
0,0,0,1,0,0,0,0,0,1,3140
0,1,0,1,0,0,0,0,1,0,3141
0,0,0,0,0,0,1,0,0,0,3144
0,0,0,1,2,0,0,0,0,0,3145
0,0,0,0,0,0,1,0,0,0,3146
0,0,0,3,0,0,0,0,2,0,3147
0,0,0,0,0,0,0,1,1,0,3148
1,0,0,0,0,0,0,0,2,1,3149
0,0,0,0,0,0,2,0,0,2,3150
0,0,0,0,0,0,1,1,0,0,3151
1,0,0,3,0,0,0,0,1,2,3152
0,0,0,0,0,1,1,0,0,0,3153
0,0,0,6,3,0,0,0,0,0,3154
0,0,0,1,0,0,0,0,1,0,3155
0,0,0,1,0,0,1,0,1,0,3156
0,0,0,1,0,0,0,0,0,0,3157
1,0,0,1,0,0,0,0,0,0,3158
1,0,0,1,2,0,2,3,0,0,3159
0,1,0,3,0,2,1,1,3,0,3160
0,0,0,9,0,0,2,0,8,0,3162
0,0,0,0,0,0,0,0,1,2,3165
0,0,0,2,0,0,1,0,0,0,3166
0,0,0,0,0,0,0,0,1,0,3167
0,0,0,0,0,0,1,0,0,0,3168
0,0,0,0,0,0,0,1,0,0,3169
0,0,0,1,0,0,0,1,1,0,3170
1,0,0,1,0,0,0,0,1,0,3172
0,4,0,0,0,1,0,0,0,0,3173
0,0,0,1,0,0,0,0,1,0,3175
0,0,0,0,0,0,0,0,3,0,3176
0,0,0,0,0,0,1,0,0,0,3178
0,3,0,1,0,0,1,0,1,0,3182
0,0,0,1,0,0,0,0,1,0,3183
0,0,0,0,0,0,4,0,0,0,3184
0,0,0,1,0,0,0,0,1,0,3185
0,0,0,0,0,2,3,0,1,1,3186
0,0,0,0,0,0,0,1,0,0,3187
0,0,0,1,0,0,1,0,1,0,3189
0,0,0,0,0,0,0,1,0,0,3190
1,0,0,0,0,0,0,0,1,0,3191
0,0,0,1,0,0,0,0,0,0,3192
0,0,0,1,1,0,0,0,0,0,3193
0,0,0,1,1,0,0,0,3,0,3196
0,0,0,3,0,2,0,0,1,0,3199
0,0,0,0,0,0,1,0,0,0,3204
0,0,0,0,0,1,2,0,0,0,3206
0,0,0,0,0,0,0,1,0,0,3207
0,0,0,2,0,0,0,0,1,0,3208
0,0,0,0,0,0,0,0,0,1,3210
0,0,0,0,0,0,0,0,1,2,3211
0,0,0,1,1,0,0,1,1,2,3212
0,0,0,1,0,0,1,0,0,0,3214
0,0,0,0,0,0,0,0,1,1,3215
1,4,0,3,0,0,2,0,2,0,3216
0,0,0,5,0,0,1,1,3,2,3217
0,0,0,0,0,1,1,0,0,1,3219
0,0,0,0,0,0,0,0,1,0,3220
0,0,0,0,0,0,0,0,1,0,3222
0,0,0,2,0,0,0,0,0,0,3223
0,0,0,1,0,0,0,0,1,0,3224
1,0,0,1,0,2,2,1,0,0,3225
0,0,0,0,0,0,0,0,2,0,3228
0,0,0,2,0,0,0,0,0,0,3229
0,0,0,1,0,0,4,1,1,3,3230
1,0,0,1,0,0,0,0,0,1,3231
0,0,0,1,0,0,2,1,0,1,3232
0,0,0,1,0,0,3,0,2,0,3233
0,0,0,0,0,0,1,0,6,0,3235
0,0,0,0,0,0,8,0,0,0,3237
4,0,0,14,2,1,2,2,5,4,3238
0,0,0,0,0,1,0,0,0,0,3239
0,0,0,1,0,0,0,0,1,0,3243
0,0,0,1,0,0,2,1,1,0,3244
1,0,0,1,0,0,0,0,0,1,3246
0,0,0,0,1,0,0,0,1,0,3247
0,0,0,0,0,0,0,0,0,1,3249
0,0,0,3,1,0,2,1,0,1,3252
0,0,0,1,0,0,0,1,0,0,3253
0,0,0,0,0,0,1,0,0,0,3254
0,0,0,1,1,0,2,0,2,5,3255
0,0,0,1,0,0,0,0,1,1,3256
0,0,0,1,0,0,1,1,0,0,3257
0,0,0,1,0,1,1,1,1,1,3260
0,1,0,0,0,0,0,0,0,1,3261
0,0,0,0,0,0,1,0,0,0,3262
0,0,0,1,0,3,2,1,0,0,3263
0,0,0,1,0,0,0,0,2,0,3265
0,0,0,0,0,0,0,0,0,1,3266
0,0,0,0,0,0,1,2,0,2,3268
2,0,0,1,1,1,2,1,5,0,3270
0,0,0,0,0,0,0,1,0,0,3272
0,0,0,5,0,1,0,0,2,0,3274
0,0,0,0,0,0,0,0,1,0,3276
0,0,0,0,0,0,0,1,0,0,3277
0,0,0,1,0,0,0,0,1,0,3278
0,0,0,2,1,0,2,0,0,0,3279
0,0,0,1,0,0,0,0,0,0,3280
0,0,0,1,0,0,0,0,1,0,3281
0,0,0,0,1,0,1,0,0,1,3286
0,0,0,12,2,0,1,0,4,3,3287
0,0,0,7,0,0,4,1,1,1,3288
0,0,0,1,0,0,2,0,0,0,3291
1,12,0,1,0,0,0,0,0,0,3292
0,0,0,1,0,1,1,1,3,0,3293
0,0,0,1,0,0,0,0,0,0,3294
0,0,0,0,0,1,0,1,0,0,3295
0,1,0,1,0,1,4,0,1,0,3296
0,0,0,2,0,0,0,0,0,1,3299
0,0,0,2,1,2,0,0,0,0,3300
0,0,0,0,0,0,0,1,0,0,3301
0,0,0,0,0,0,0,1,1,0,3302
0,0,0,0,0,0,0,0,1,0,3303
0,0,0,1,0,0,0,0,0,0,3304
0,0,0,0,0,0,0,1,0,0,3306
0,0,0,1,0,0,0,0,1,0,3309
0,0,0,0,0,0,1,0,0,0,3310
0,2,0,0,0,1,0,0,1,0,3313
0,0,0,0,0,0,0,1,0,1,3314
0,0,0,0,0,1,0,0,0,0,3315
2,0,0,1,0,0,1,0,1,3,3316
2,0,0,0,0,0,1,0,1,0,3318
0,0,0,0,0,0,1,0,3,0,3319
1,0,0,0,0,0,3,0,2,2,3322
0,0,0,0,0,0,2,0,0,0,3323
0,0,0,0,0,0,0,1,0,0,3324
0,0,0,2,0,0,3,1,3,0,3327
0,1,0,3,0,0,0,0,1,0,3328
0,0,0,1,0,0,0,0,0,0,3329
0,0,0,0,0,0,0,0,1,0,3331
0,0,0,0,0,0,2,0,1,0,3333
0,0,0,3,0,0,0,0,0,1,3336
0,0,0,1,1,0,0,0,1,0,3337
1,0,0,0,1,1,0,0,0,0,3339
0,0,0,0,0,0,3,0,0,0,3341
0,0,0,0,0,0,0,1,0,0,3347
0,0,0,3,0,0,2,0,1,1,3348
0,0,0,0,0,0,1,1,2,0,3349
0,0,0,2,0,0,0,0,1,0,3350
0,0,0,0,0,0,0,1,0,0,3351
0,0,0,0,0,0,0,1,0,0,3353
0,0,0,1,0,1,0,0,0,0,3355
0,0,0,1,0,0,0,0,0,0,3356
0,0,0,0,0,0,1,0,0,2,3358
0,0,0,5,0,0,2,0,1,2,3359
0,0,0,1,0,0,0,0,1,0,3360
0,0,0,0,0,0,1,1,0,0,3362
0,0,0,0,0,0,1,0,0,0,3364
0,0,0,1,0,0,0,0,0,1,3365
0,0,0,0,0,0,1,0,0,0,3366
0,0,0,0,0,0,0,1,0,1,3369
0,0,0,0,0,0,0,1,0,0,3370
0,0,0,7,0,1,0,2,2,0,3372
0,0,0,0,0,0,1,0,0,0,3377
1,0,0,2,0,1,1,0,1,1,3378
0,1,0,0,0,0,2,0,0,0,3380
0,0,0,0,0,0,1,0,0,0,3381
0,0,0,0,0,1,0,0,0,0,3382
0,0,0,4,0,0,2,0,4,0,3383
0,0,0,2,0,0,0,0,0,0,3384
0,0,0,1,0,0,0,0,0,0,3385
0,0,0,1,0,0,0,0,0,0,3386
0,5,0,0,0,1,2,0,0,0,3387
0,0,0,0,1,1,0,0,0,0,3388
0,0,0,0,0,0,1,0,0,0,3390
